{ "_id" : { "$oid" : "5600789bc9b2675885663909" }, "id" : "10724", "marke" : { "$oid" : "5600789bc9b26758856638fe" }, "standort" : { "$oid" : "5600789bc9b26758856638ec" }, "region" : { "$oid" : "5600789bc9b26758856638f5" }, "kategorie" : { "$oid" : "5600789bc9b2675885663903" }, "nameDerOrganisation" : "Unterstützerkreis Flüchtlingsunterkünfte Hannover e. V.", "ansprechpartnerIn" : "Frau Eileen Al-Zubairy", "adresse" : "Bemeroder Rathausplatz 1, 30539 Hannover", "telefon" : "0511-...", "eMail" : null, "homepage" : "http://www.uf-hannover.de", "erreichbar" : "", "plzEinsatzort" : null, "konkreteTaetigkeit" : "Unterstützung beim Aufbau einer Fahrradwerkstatt", "taetigkeitsbeschreibung" : "Alles rund ums Fahrrad", "schnuppertagMoeglich" : "ja", "besondereLeistungen" : "", "zeitaufwandBemerkung" : "nach Bedarf", "notwendigeKenntnisse" : "" }
{ "_id" : { "$oid" : "5600789bc9b267588566390a" }, "id" : "10742", "marke" : { "$oid" : "5600789bc9b26758856638fe" }, "standort" : { "$oid" : "5600789bc9b26758856638ec" }, "region" : { "$oid" : "5600789bc9b26758856638f5" }, "kategorie" : { "$oid" : "5600789bc9b2675885663904" }, "nameDerOrganisation" : "Nachbarschaftskreis Annateich", "ansprechpartnerIn" : "Frau Anke Kolster", "adresse" : "..., 00000 Hannover", "telefon" : "0511-5414128", "eMail" : null, "homepage" : "http://www.uf-hannover.de/der-verein/mitgliedschaft/unterstuetzerkreise/annateich", "erreichbar" : "", "plzEinsatzort" : null, "konkreteTaetigkeit" : "Umzugshilfe", "taetigkeitsbeschreibung" : "diverse ", "schnuppertagMoeglich" : "nein", "besondereLeistungen" : "", "zeitaufwandBemerkung" : "", "notwendigeKenntnisse" : "Vorteilhaft: französisch, arabisch, englisch " }
{ "_id" : { "$oid" : "5600789bc9b267588566390b" }, "id" : "10702", "marke" : { "$oid" : "5600789bc9b26758856638fe" }, "standort" : { "$oid" : "5600789bc9b26758856638ec" }, "region" : { "$oid" : "5600789bc9b26758856638f5" }, "kategorie" : { "$oid" : "5600789bc9b2675885663904" }, "nameDerOrganisation" : "Deutsches Rotes Kreuz", "ansprechpartnerIn" : "Frau Christa Möller", "adresse" : "Karlsruher Str. 2c, 30519 Hannover", "telefon" : "0511 3671 158 ", "eMail" : null, "homepage" : "http://www.drk-hannover.de", "erreichbar" : "Mo.- Do. 08:00 - 16:00 Uhr und Frei. 08:00 -13:00 Uhr und nach Absprache", "plzEinsatzort" : null, "konkreteTaetigkeit" : "Lebensmittelausgabe", "taetigkeitsbeschreibung" : "Mithilfe bei der Ausgabe von Lebensmitteln an bedürftige Personen im Stadtteil Mittelfeld in Hannover.\nJe nach Einsatzschwerpunkt Mithilfe bei allen im Rahmen der Lebensmittelausgabe anfallenden Aufgaben.", "schnuppertagMoeglich" : "ja", "besondereLeistungen" : "", "zeitaufwandBemerkung" : "nach Absprache\nEine Aufwandserstattung wird gezahlt", "notwendigeKenntnisse" : "" }
{ "_id" : { "$oid" : "5600789bc9b267588566390c" }, "id" : "10752", "marke" : { "$oid" : "5600789bc9b26758856638fd" }, "standort" : { "$oid" : "5600789bc9b26758856638ea" }, "region" : { "$oid" : "5600789bc9b26758856638f2" }, "kategorie" : { "$oid" : "5600789bc9b2675885663907" }, "nameDerOrganisation" : "Ökumenischen Informationszentrum e.V. Dresden", "ansprechpartnerIn" : "Frau Michaela Schoffer", "adresse" : " Kreuzstraße 7, 01067 Dresden", "telefon" : "017641828673 oder 0351 4923365", "eMail" : null, "homepage" : "http://www.infozentrum-dresden.de/wohnung-gesucht-vermieten-sie-wohnraum-helfen-sie-fluechtlingen/", "erreichbar" : "", "plzEinsatzort" : null, "konkreteTaetigkeit" : "Flüchtlingen bei der Wohnungssuche helfen", "taetigkeitsbeschreibung" : "Helfen Sie mit Ihrem Insiderwissen. Sie können im Internet gemeinsam recherchieren, die ersten Kontakte zu den Vermietern herstellen und die Flüchtlinge zur Besichtigung begleiten. Sie können Flüchtlinge auch ins Sozialamt begleiten, wenn sie einen Wohnraum gefunden haben.", "schnuppertagMoeglich" : "nein", "besondereLeistungen" : "", "zeitaufwandBemerkung" : "Je nach Bedarf des ehrenamtlichen selbst.", "notwendigeKenntnisse" : "Gute deutsch Kenntnisse sowie Fremdsprachenkenntnisse zur Überetzung von Vorteil." }
{ "_id" : { "$oid" : "5600789bc9b267588566390d" }, "id" : "10766", "marke" : { "$oid" : "5600789bc9b26758856638fd" }, "standort" : { "$oid" : "5600789ac9b26758856638e9" }, "region" : { "$oid" : "5600789bc9b26758856638ef" }, "kategorie" : { "$oid" : "5600789bc9b2675885663904" }, "nameDerOrganisation" : "Stadtmission Zwickau", "ansprechpartnerIn" : "Herr Thomas Kebschull", "adresse" : "Lothar-Streit-Straße 14, 08056 Zwickau", "telefon" : "0173 5180-320", "eMail" : null, "homepage" : "http://www.stadtmission-zwickau.de/menschen-in-not-hilfe-fuer-asylsuchende-fluechtlinge.html", "erreichbar" : "per Mail", "plzEinsatzort" : null, "konkreteTaetigkeit" : "Unterstützung Behördengänge, Arztbesuche ", "taetigkeitsbeschreibung" : "Unterstützung Behördengänge, Arztbesuche ", "schnuppertagMoeglich" : "nein", "besondereLeistungen" : "", "zeitaufwandBemerkung" : "Um für die zu erwartenden vielseitigen Herausforderungen in der Betreuung sinnvolle Angebote schaffen zu können, sind wir dabei ein Unterstützer-Netzwerk aufzubauen. ", "notwendigeKenntnisse" : "" }
{ "_id" : { "$oid" : "5600789bc9b267588566390e" }, "id" : "10764", "marke" : { "$oid" : "5600789bc9b26758856638fd" }, "standort" : { "$oid" : "5600789ac9b26758856638e9" }, "region" : { "$oid" : "5600789bc9b26758856638ef" }, "kategorie" : { "$oid" : "5600789bc9b2675885663904" }, "nameDerOrganisation" : "Stadtmission Zwickau", "ansprechpartnerIn" : "Herr Thomas Kebschull", "adresse" : "Lothar-Streit-Straße 14, 08056 Zwickau", "telefon" : "0173 5180-320", "eMail" : null, "homepage" : "http://www.stadtmission-zwickau.de/menschen-in-not-hilfe-fuer-asylsuchende-fluechtlinge.html", "erreichbar" : "per Mail", "plzEinsatzort" : null, "konkreteTaetigkeit" : "Unterstützung bei der Haushaltsführung/Einkauf …", "taetigkeitsbeschreibung" : "Unterstützung bei der Haushaltsführung/Einkauf …", "schnuppertagMoeglich" : "nein", "besondereLeistungen" : "", "zeitaufwandBemerkung" : "In unserer Unterkunft wohnen allein reisende Männer aus verschiedenen Nationen. ", "notwendigeKenntnisse" : "" }
{ "_id" : { "$oid" : "5600789bc9b267588566390f" }, "id" : "10725", "marke" : { "$oid" : "5600789bc9b26758856638fd" }, "standort" : { "$oid" : "5600789bc9b26758856638ee" }, "region" : { "$oid" : "5600789bc9b26758856638f1" }, "kategorie" : { "$oid" : "5600789bc9b2675885663900" }, "nameDerOrganisation" : "Freiwillige Feuerwehr Ehra-Lessien", "ansprechpartnerIn" : "Herr Frank Mosel", "adresse" : "Molkereistraße, 38468 Ehra-Lessien", "telefon" : "015115629261", "eMail" : null, "homepage" : "http://www.ff-ehra-lessien.de", "erreichbar" : "", "plzEinsatzort" : null, "konkreteTaetigkeit" : "Brandsicherheitswachdienst", "taetigkeitsbeschreibung" : "Übliche Tätigkeiten im Brandsicherheitswachdienst", "schnuppertagMoeglich" : "nein", "besondereLeistungen" : "Die Brandsicherheitswache wird benötigt, um den Brandschutz für die Notunterkunft für Flüchtlinge auf dem ehemaligen Truppenübungsplatz in Ehra-Lessien sicherzustellen.", "zeitaufwandBemerkung" : "Insgesamt benötigen wir 180 Personen, aufgeteilt in drei Schichten (Früh-, Spät, Nachtschicht), ab sofort bis vorraussichtlich 29.09.201", "notwendigeKenntnisse" : "Vorraussetzungen: Feuwehrleute die Mitglied in einer Freiwilligen Feuerwehr des Landkreises Gifhorn sind,insbesondere werden Atemschutzgeräteträger, Maschinisten (mit Fahrerlaubnis CE/ Klasse 2) und Gruppenführer (und mehr) benötigt." }
{ "_id" : { "$oid" : "5600789bc9b2675885663910" }, "id" : "10773", "marke" : { "$oid" : "5600789bc9b26758856638ff" }, "standort" : { "$oid" : "5600789bc9b26758856638ed" }, "region" : { "$oid" : "5600789bc9b26758856638f6" }, "kategorie" : { "$oid" : "5600789bc9b2675885663904" }, "nameDerOrganisation" : "Wilhelmshöhe ist bunt  ", "ansprechpartnerIn" : "Herr Lars Hillebold", "adresse" : "Baunsbergstraße 10, 34131 Kassel", "telefon" : "...", "eMail" : null, "homepage" : "", "erreichbar" : "per Mail", "plzEinsatzort" : null, "konkreteTaetigkeit" : "Kleidersortierung und -ausgabe", "taetigkeitsbeschreibung" : "Kleidersortierung und -ausgabe", "schnuppertagMoeglich" : "nein", "besondereLeistungen" : "", "zeitaufwandBemerkung" : "nach Bedarf / Vermögen", "notwendigeKenntnisse" : "" }
{ "_id" : { "$oid" : "5600789bc9b2675885663911" }, "id" : "10739", "marke" : { "$oid" : "5600789bc9b26758856638fe" }, "standort" : { "$oid" : "5600789bc9b26758856638ec" }, "region" : { "$oid" : "5600789bc9b26758856638f5" }, "kategorie" : { "$oid" : "5600789bc9b2675885663903" }, "nameDerOrganisation" : "Nachbarschaftskreis Annateich", "ansprechpartnerIn" : "Frau Anke Kolster", "adresse" : "..., 00000 Hannover", "telefon" : "0511-5414128", "eMail" : null, "homepage" : "http://www.uf-hannover.de/der-verein/mitgliedschaft/unterstuetzerkreise/annateich", "erreichbar" : "", "plzEinsatzort" : null, "konkreteTaetigkeit" : "Angebot von Verabredung zu Fahrradreparaturen", "taetigkeitsbeschreibung" : "diverse ", "schnuppertagMoeglich" : "nein", "besondereLeistungen" : "", "zeitaufwandBemerkung" : "", "notwendigeKenntnisse" : "Vorteilhaft: französisch, arabisch, englisch " }
