<?xml version="1.0" encoding="UTF-8"?>
<!DOCTYPE svg PUBLIC "-//W3C//DTD SVG 1.0//EN" "http://www.w3.org/TR/2001/REC-SVG-20010904/DTD/svg10.dtd">
<svg xmlns="http://www.w3.org/2000/svg">
<metadata>
<version>1.0</version>
<id><![CDATA[FrankGoth for Porsche W15 Cn]]></id>
<vendor>Monotype Imaging Inc.</vendor>
<credits>
<name>Fonts.com WebFonts</name>
<URL>http://webfonts.fonts.com</URL>
<role>Home of the Web fonts</role>
</credits>
<license>
<URL>http://webfonts.fonts.com/Legal</URL>
</license>
<copyright><![CDATA[Copyright © 2002 - 2010 Linotype GmbH, www.linotype.com. All rights reserved. This font software may not be reproduced, modified, disclosed or transferred without the express written approval of Linotype GmbH. Franklin Gothic This typeface is original artwork of Morris Fuller Benton. The design may be protected in certain jurisdictions.© 1989, 1994, 2001 Adobe Systems Incorporated. All rights reserved.]]></copyright>
<trademark><![CDATA[Franklin Gothic]]></trademark>
<licensee>
<name/>
</licensee>
</metadata>
<defs>
<font horiz-adv-x="498" id="FrankGothforPorscheW15-Cn">
<font-face font-family="FrankGoth for Porsche W15 Cn" panose-1="2 11 8 6 3 7 2 3 2 4" ascent="750" descent="-250" units-per-em="1000" alphabetic="0">
</font-face>
<missing-glyph horiz-adv-x="268"/>

<glyph unicode="
" horiz-adv-x="0"/>
<glyph unicode="" horiz-adv-x="0"/>
<glyph unicode=" " horiz-adv-x="268"/>
<glyph unicode="!" horiz-adv-x="352" d="M83 712H269L238 248H130L83 712ZM94 174H268V0H94V174Z"/>
<glyph unicode="&quot;" horiz-adv-x="519" d="M310 712H442V377H310V712ZM77 712H209V377H77V712Z"/>
<glyph unicode="#" horiz-adv-x="536" d="M484 201H398L371 0H271L298 201H207L180 0H80L107 201H23V297H121L137 415H53V511H150L177 712H277L250 511H341L368 712H468L441 511H513V415H428L412 297H484V201ZM221 297H312L328 415H237L221 297Z"/>
<glyph unicode="$" horiz-adv-x="536" d="M246 812H300V722Q372 711 422 669T493 569L350 509Q336 541 314 564T252 588Q229 588 210 574T190 528Q190 503 214 486T273 455T351 424T428 382T488 320T512 227Q512 179 496 139T451 68T383 17T300 -10V-106H246V-14Q157 -12 90 34T-8 166L141 226Q151 203 161 185T186 153T219 132T264 124Q295 124 316 141T338 184Q338 220 315 240T256 275T180 305T104 346T46 413T22 524Q22 563 40 599T89 663T160 708T246 726V812Z"/>
<glyph unicode="%" horiz-adv-x="685" d="M527 62Q548 62 551 92T555 176Q555 230 552 260T527 290Q506 290 503 260T499 176Q499 122 502 92T527 62ZM527 -10Q487 -10 462 6T422 50T403 110T397 176Q397 209 402 242T422 302T461 345T527 362Q567 362 592 346T632 302T651 242T657 176Q657 143 652 110T632 50T593 7T527 -10ZM158 422Q179 422 182 452T186 536Q186 590 183 620T158 650Q137 650 134 620T130 536Q130 482 133 452T158 422ZM158 350Q118 350 93 366T53 410T34 470T28 536Q28 569 33 602T53 662T92 705T158 722Q198 722 223 706T263 662T282 602T288 536Q288 503 283 470T263 410T224 367T158 350ZM176 -23H84L503 735H595L176 -23Z"/>
<glyph unicode="&amp;" horiz-adv-x="630" d="M624 -14Q601 -14 571 -9T512 5T456 29T414 62Q372 27 321 7T216 -14Q177 -14 140 0T72 39T24 99T6 176Q6 214 19 245T54 302T104 347T162 382Q139 417 121 459T102 544Q102 586 118 619T161 676T224 713T303 726Q337 726 371 717T433 689T478 639T495 567Q495 537 482 510T449 460T404 417T356 382L436 279Q443 286 450 300T464 331T476 364T484 390L614 359Q612 345 604 322T582 273T554 221T522 175Q529 168 540 162T565 152T591 145T615 142H624V-14ZM226 282Q209 265 198 243T186 196Q186 184 191 172T206 151T227 136T252 130Q269 130 290 135T322 153L226 282ZM303 618Q282 618 270 602T258 566Q258 554 262 541T273 516T286 491T299 469Q306 480 315 491T332 514T345 539T351 566Q351 588 338 603T303 618Z"/>
<glyph unicode="'" horiz-adv-x="268" d="M68 712H200V377H68V712Z"/>
<glyph unicode="(" horiz-adv-x="333" d="M140 -92Q123 -40 111 8T92 106T80 205T76 310Q76 413 95 514T145 712H292Q257 610 239 504T220 290Q220 192 235 95T292 -92H140Z"/>
<glyph unicode=")" horiz-adv-x="333" d="M193 712Q209 660 221 612T241 514T253 415T257 310Q257 207 238 106T188 -92H41Q76 10 94 116T113 330Q113 428 98 525T41 712H193Z"/>
<glyph unicode="*" horiz-adv-x="389" d="M245 383L200 506H190L138 387L55 442L156 527L152 540L21 553L52 647L162 577L175 585L148 712H244L214 585L226 576L342 643L369 548L237 540L231 528L329 437L245 383Z"/>
<glyph unicode="+" horiz-adv-x="600" d="M240 506H360V313H553V193H360V0H240V193H47V313H240V506Z"/>
<glyph unicode="," horiz-adv-x="268" d="M47 174H221V22L121 -161H30L109 0H47V174Z"/>
<glyph unicode="-" horiz-adv-x="296" d="M28 328H268V190H28V328Z"/>
<glyph unicode="." horiz-adv-x="268" d="M47 174H221V0H47V174Z"/>
<glyph unicode="/" horiz-adv-x="315" d="M254 726H373L62 -14H-58L254 726Z"/>
<glyph unicode="0" horiz-adv-x="536" d="M18 356Q18 424 28 489T66 607T142 690T268 722Q344 722 393 691T469 607T507 490T518 356Q518 281 504 215T460 98T383 19T268 -10Q191 -10 143 19T67 98T29 214T18 356ZM204 248Q204 207 208 181T220 138T241 116T268 110Q283 110 295 116T315 138T328 180T332 248V464Q332 505 328 531T316 574T295 596T268 602Q253 602 241 596T221 574T208 532T204 464V248Z"/>
<glyph unicode="1" horiz-adv-x="536" d="M371 120H477V0H95V120H203V536L95 510V631Q110 633 135 641T188 662T238 687T269 712H371V120Z"/>
<glyph unicode="2" horiz-adv-x="536" d="M21 122Q79 173 135 226T236 331T307 427T335 508Q335 537 321 560T274 584Q254 584 240 575T215 550T199 518T188 484L34 523Q46 569 69 606T126 668T201 708T290 722Q337 722 378 710T449 672T497 610T515 522Q515 459 485 406T410 309T314 226T221 152V150H506V0H21V122Z"/>
<glyph unicode="3" horiz-adv-x="536" d="M161 420H201Q250 420 282 439T315 512Q315 547 297 571T247 596Q210 596 189 571T157 510L23 569Q56 644 120 683T265 722Q310 722 352 709T425 669T476 606T495 520Q495 488 482 462T448 417T399 386T341 367V365Q377 360 409 349T464 319T501 271T515 202Q515 148 491 108T429 42T343 3T248 -10Q163 -10 105 26T11 139L142 204Q149 187 158 172T178 144T205 124T241 116Q283 116 306 138T329 202Q329 235 319 254T291 284T251 297T206 300H161V420Z"/>
<glyph unicode="4" horiz-adv-x="536" d="M271 520H269L138 288H271V520ZM264 174H12V288L266 712H439V288H524V174H438V0H264V174Z"/>
<glyph unicode="5" horiz-adv-x="536" d="M74 712H485L474 568H202L193 435Q213 448 243 455T298 462Q350 462 390 445T458 396T500 323T515 232Q515 181 494 137T436 60T352 9T252 -10Q164 -10 104 37T21 166L156 215Q162 195 169 177T187 146T213 124T252 116Q273 116 288 126T314 153T330 188T335 224Q335 246 330 267T315 304T288 331T247 342Q221 342 202 326T171 288L46 340L74 712Z"/>
<glyph unicode="6" horiz-adv-x="536" d="M351 511Q349 526 345 541T334 568T314 588T283 596Q253 596 237 573T213 519T203 454T201 401Q232 419 265 431T335 444Q372 444 405 430T464 391T505 332T521 255Q521 196 505 148T456 64T377 10T270 -10Q198 -10 149 23T70 108T28 223T15 346Q15 387 21 431T40 516T75 595T126 661T195 705T283 722Q377 722 432 675T504 535L351 511ZM200 305Q200 286 201 253T207 192Q213 161 227 139T270 116Q293 116 307 127T328 155T338 191T341 229Q341 274 326 302T270 330Q248 330 232 322T200 305Z"/>
<glyph unicode="7" horiz-adv-x="536" d="M37 712H499V622Q451 544 415 475T352 333T311 180T290 0H86Q97 74 119 147T173 291T240 431T315 562H37V712Z"/>
<glyph unicode="8" horiz-adv-x="536" d="M267 110Q282 110 297 115T324 129T343 152T351 184Q351 206 342 223T316 253T280 276T237 296Q225 281 215 270T199 246T189 220T185 186Q185 151 208 131T267 110ZM285 614Q255 614 232 596T208 545Q208 521 217 505T241 477T273 454T308 433Q333 459 347 481T362 534Q362 572 343 593T285 614ZM282 722Q325 722 364 712T434 679T482 621T500 537Q500 483 466 443T384 384V382Q453 363 489 317T525 198Q525 144 501 105T439 40T353 2T256 -10Q217 -10 174 1T94 37T35 97T11 183Q11 216 22 243T53 290T99 325T155 346V348Q101 368 71 412T40 513Q40 564 60 603T115 669T192 708T282 722Z"/>
<glyph unicode="9" horiz-adv-x="536" d="M185 201Q187 186 191 171T202 144T222 124T253 116Q283 116 299 139T323 193T333 258T335 311Q304 293 271 281T201 268Q164 268 131 282T72 321T31 380T15 457Q15 515 31 564T80 648T159 702T266 722Q338 722 387 689T466 604T508 489T521 366Q521 304 507 238T461 117T378 26T253 -10Q159 -10 104 37T32 177L185 201ZM336 407Q336 426 335 459T329 520Q323 551 309 573T266 596Q243 596 229 585T208 557T198 521T195 483Q195 438 210 410T266 382Q288 382 304 390T336 407Z"/>
<glyph unicode=":" horiz-adv-x="268" d="M47 502H221V328H47V502ZM47 174H221V0H47V174Z"/>
<glyph unicode=";" horiz-adv-x="268" d="M47 174H221V22L121 -161H30L109 0H47V174ZM47 502H221V328H47V502Z"/>
<glyph unicode="&lt;" horiz-adv-x="600" d="M553 -8L47 206V300L553 514V399L202 253L553 107V-8Z"/>
<glyph unicode="=" horiz-adv-x="600" d="M553 305H47V425H553V305ZM553 81H47V201H553V81Z"/>
<glyph unicode="&gt;" horiz-adv-x="600" d="M398 253L47 399V514L553 300V206L47 -8V107L398 253Z"/>
<glyph unicode="?" horiz-adv-x="444" d="M147 293Q147 328 156 355T180 404T210 444T241 480T264 514T274 553Q274 582 258 595T216 608Q197 608 184 598T164 572T153 537T149 501L8 526Q15 622 75 672T230 722Q267 722 303 713T369 684T417 634T436 562Q436 538 430 519T414 482T391 451T364 421Q335 391 313 359T291 276V248H147V293ZM134 174H308V0H134V174Z"/>
<glyph unicode="@" horiz-adv-x="800" d="M388 268Q428 268 452 294T476 358Q476 390 458 409T408 429Q390 429 375 421T348 401T331 372T324 339Q324 309 340 289T388 268ZM561 351Q558 333 554 312T549 282Q549 274 551 269T562 263Q577 263 594 270T627 294T652 334T662 394Q662 453 645 496T594 568T515 612T412 630Q353 630 303 609T216 550T159 463T138 356Q138 299 159 250T217 163T306 104T420 82Q444 82 472 83T530 91T589 108T644 140L729 120Q700 79 663 53T586 12T503 -8T420 -14Q336 -14 265 15T141 94T60 212T30 356Q30 432 59 499T140 617T261 697T412 726Q479 726 543 706T658 648T739 553T770 422Q770 348 746 300T684 224T601 184T514 172Q449 172 449 217H447Q435 199 411 186T352 172Q328 172 305 183T263 214T233 263T222 328Q222 366 234 401T269 464T324 508T395 525Q429 525 455 513T501 474L510 517H591L561 351Z"/>
<glyph unicode="A" horiz-adv-x="555" d="M167 712H403L555 0H373L345 144H180L149 0H0L167 712ZM205 270H320L268 560H266L205 270Z"/>
<glyph unicode="B" horiz-adv-x="574" d="M46 712H346Q395 712 433 699T499 664T540 610T555 542Q555 509 545 481T516 431T474 395T421 374V372Q491 355 529 311T568 196Q568 151 552 115T505 53T431 14T335 0H46V712ZM226 132H292Q307 132 322 136T351 150T373 177T382 222Q382 262 359 286T292 310H226V132ZM226 430H285Q334 430 354 452T375 507Q375 532 368 548T348 572T320 583T289 586H226V430Z"/>
<glyph unicode="C" horiz-adv-x="556" d="M368 463Q368 481 365 503T354 546T331 580T291 594Q262 594 245 575T219 524T207 448T204 355Q204 300 206 256T218 182T245 135T295 118Q320 118 335 128T360 156T374 201T380 261L536 247Q536 188 519 140T470 58T392 5T287 -14Q205 -14 152 18T67 102T23 220T10 356Q10 420 22 486T66 605T151 692T287 726Q351 726 398 706T476 650T521 566T536 463H368Z"/>
<glyph unicode="D" horiz-adv-x="574" d="M46 712H241Q324 712 385 688T486 618T546 509T566 367Q566 291 550 224T497 108T403 29T263 0H46V712ZM226 126H246Q293 126 318 151T356 214T370 295T372 374Q372 405 369 442T352 511T312 564T241 586H226V126Z"/>
<glyph unicode="E" horiz-adv-x="500" d="M46 712H494V574H226V430H406V292H226V144H494V0H46V712Z"/>
<glyph unicode="F" horiz-adv-x="481" d="M46 712H475V574H226V430H403V292H226V0H46V712Z"/>
<glyph unicode="G" horiz-adv-x="574" d="M538 -11H463L428 55Q398 20 356 3T272 -14Q202 -14 153 12T72 84T25 196T10 338Q10 409 22 478T66 603T151 692T287 726Q353 726 401 707T481 652T528 567T543 458H369Q367 489 364 514T353 557T331 584T291 594Q262 594 245 575T219 524T207 448T204 355Q204 300 206 256T218 182T245 135T295 118Q318 118 334 130T361 159T377 197T382 234H292V354H538V-11Z"/>
<glyph unicode="H" horiz-adv-x="593" d="M46 712H226V436H367V712H547V0H367V292H226V0H46V712Z"/>
<glyph unicode="I" horiz-adv-x="278" d="M49 712H229V0H49V712Z"/>
<glyph unicode="J" horiz-adv-x="333" d="M287 144Q287 98 272 68T231 19T168 -6T89 -14Q60 -14 40 -12T-1 -6V129Q19 124 36 124Q61 124 75 130T97 149T105 178T107 217V712H287V144Z"/>
<glyph unicode="K" horiz-adv-x="574" d="M46 712H226V405H228L402 712H579L421 477L576 0H400L302 308H301L226 196V0H46V712Z"/>
<glyph unicode="L" horiz-adv-x="481" d="M46 712H226V126H470V0H46V712Z"/>
<glyph unicode="M" horiz-adv-x="759" d="M46 712H298L375 313H377L468 712H713V0H533V526H531L408 0H299L186 544H184V0H46V712Z"/>
<glyph unicode="N" horiz-adv-x="593" d="M46 712H196L401 329H403V712H547V0H403L192 397H190V0H46V712Z"/>
<glyph unicode="O" horiz-adv-x="574" d="M10 356Q10 424 23 490T69 609T154 694T287 726Q366 726 419 694T505 610T550 491T564 356Q564 288 551 222T505 103T420 18T287 -14Q207 -14 154 18T69 102T24 221T10 356ZM204 356Q204 303 205 260T214 185T239 136T287 118Q318 118 335 135T359 184T368 259T370 356Q370 408 369 452T360 527T335 576T287 594Q256 594 239 577T215 528T206 452T204 356Z"/>
<glyph unicode="P" horiz-adv-x="556" d="M226 411H258Q277 411 297 415T333 429T360 456T370 498Q370 523 360 540T334 567T297 581T258 586H226V411ZM46 712H314Q364 712 408 700T485 664T537 601T556 510Q556 448 536 406T480 336T397 297T295 285Q278 285 261 286T226 289V0H46V712Z"/>
<glyph unicode="Q" horiz-adv-x="574" d="M552 -150Q512 -150 478 -144T416 -121T369 -78T339 -10Q326 -12 314 -13T287 -14Q207 -14 154 18T69 102T24 221T10 356Q10 424 23 490T69 609T154 694T287 726Q366 726 419 694T505 610T550 491T564 356Q564 312 558 268T538 182T502 106T450 43Q458 28 466 19T486 4T513 -4T552 -6V-150ZM204 356Q204 303 205 260T214 185T239 136T287 118Q318 118 335 135T359 184T368 259T370 356Q370 408 369 452T360 527T335 576T287 594Q256 594 239 577T215 528T206 452T204 356Z"/>
<glyph unicode="R" horiz-adv-x="556" d="M46 712H314Q365 712 408 700T484 664T534 601T553 510Q553 453 520 410T434 346L553 0H375L286 308H226V0H46V712ZM226 422H261Q312 422 342 439T373 500Q373 528 363 544T337 568T300 578T256 580H226V422Z"/>
<glyph unicode="S" horiz-adv-x="519" d="M141 226Q151 203 161 185T186 153T219 132T264 124Q295 124 316 141T338 184Q338 220 315 240T256 275T180 305T104 346T46 413T22 524Q22 564 40 600T90 665T164 709T252 726Q297 726 336 714T406 681T459 631T493 569L350 509Q336 541 314 564T252 588Q229 588 210 574T190 528Q190 503 214 486T273 455T351 424T428 382T488 320T512 227Q512 172 491 128T435 52T352 3T252 -14Q161 -14 93 32T-8 166L141 226Z"/>
<glyph unicode="T" horiz-adv-x="482" d="M-10 712H492V574H331V0H151V574H-10V712Z"/>
<glyph unicode="U" horiz-adv-x="574" d="M528 226Q528 105 464 46T282 -14Q159 -14 103 48T46 226V712H226V218Q226 198 229 180T242 148T266 126T304 118Q327 118 341 127T364 152T375 187T378 227V712H528V226Z"/>
<glyph unicode="V" horiz-adv-x="519" d="M-9 712H172L256 216H258L378 712H528L333 0H150L-9 712Z"/>
<glyph unicode="W" horiz-adv-x="796" d="M1 712H174L243 270H245L333 712H494L575 270H577L657 712H795L640 0H486L402 473H400L304 0H149L1 712Z"/>
<glyph unicode="X" horiz-adv-x="537" d="M11 712H208L284 526L377 712H540L359 387L546 0H352L257 214L156 0H-9L185 354L11 712Z"/>
<glyph unicode="Y" horiz-adv-x="537" d="M169 277L-9 712H179L273 432L386 712H546L349 287V0H169V277Z"/>
<glyph unicode="Z" horiz-adv-x="481" d="M477 0H0V90L262 580H32V712H481V622L219 132H477V0Z"/>
<glyph unicode="[" horiz-adv-x="333" d="M71 712H295V616H203V4H295V-92H71V712Z"/>
<glyph unicode="\" horiz-adv-x="315" d="M373 -14H253L-58 726H61L373 -14Z"/>
<glyph unicode="]" horiz-adv-x="333" d="M262 -92H38V4H130V616H38V712H262V-92Z"/>
<glyph unicode="^" horiz-adv-x="600" d="M247 712H353L527 347H410L300 592L189 347H73L247 712Z"/>
<glyph unicode="_" horiz-adv-x="500" d="M0 -125V-75H500V-125H0Z"/>
<glyph unicode="`" horiz-adv-x="241" d="M110 724L203 580H103L-43 724H110Z"/>
<glyph unicode="a" horiz-adv-x="481" d="M276 353Q276 376 266 394T234 412Q220 412 211 406T195 390T186 368T181 346L40 375Q47 412 66 438T112 481T172 506T240 514Q276 514 311 506T375 479T420 432T438 361V81Q438 38 443 22T453 0H286Q284 11 284 23T281 46Q259 20 228 4T159 -12Q93 -12 54 28T15 142Q15 193 40 226T104 280T189 309T276 319V353ZM276 241Q253 239 235 235T203 221T184 195T177 150Q177 124 189 110T224 96Q235 96 248 103T276 128V241Z"/>
<glyph unicode="b" horiz-adv-x="500" d="M213 157Q213 125 228 111T266 96Q300 96 308 130T317 234V272Q317 309 316 337T311 385T296 414T267 424Q252 424 241 417T222 404L213 395V157ZM51 712H213V473H215Q232 491 260 502T313 514Q355 514 387 494T441 440T474 358T485 257Q485 214 476 168T444 83T387 19T301 -6Q253 -6 221 15T165 72L135 0H51V712Z"/>
<glyph unicode="c" horiz-adv-x="463" d="M304 315Q304 330 303 347T296 378Q290 393 280 402T249 412Q229 412 217 400T199 367T191 314T189 246Q189 161 203 129T249 96Q270 96 282 105T301 129T309 161T311 192L437 174Q428 82 377 35T237 -12Q182 -12 141 10T71 67T29 148T15 240Q15 291 29 340T72 428T144 490T244 514Q308 514 347 490T407 434T435 368T442 315H304Z"/>
<glyph unicode="d" horiz-adv-x="500" d="M449 0H296V49H294Q276 32 262 21T233 4T204 -4T171 -6Q131 -6 102 13T54 65T25 141T15 232Q15 286 23 334T50 420T101 480T181 502Q216 502 240 491T287 458V712H449V0ZM287 389Q280 399 267 405T236 412Q216 412 206 398T190 362T184 313T183 259Q183 220 184 189T189 136T203 102T228 90Q246 90 262 100T287 128V389Z"/>
<glyph unicode="e" horiz-adv-x="463" d="M177 215Q177 198 179 178T189 139T211 109T250 96Q279 96 301 115T332 165L441 125Q438 116 427 94T392 48T331 6T240 -12Q182 -12 140 9T70 67T29 152T15 252Q15 305 29 352T70 436T140 493T238 514Q296 514 336 491T401 431T437 346T448 249V215H177ZM298 311Q298 329 296 347T288 379T270 403T237 412Q220 412 209 403T190 380T180 347T177 311H298Z"/>
<glyph unicode="f" horiz-adv-x="296" d="M56 388H-10V502H56V558Q56 650 100 688T224 726Q247 726 263 725T306 720V596Q299 598 291 599T276 600Q245 600 232 590T218 557V502H306V388H218V0H56V388Z"/>
<glyph unicode="g" horiz-adv-x="481" d="M495 416Q484 427 470 434T438 442Q418 442 411 431Q425 414 430 393T435 349Q435 312 417 284T370 238T306 210T237 201Q214 201 198 203T168 209Q165 205 158 197T151 180Q151 166 159 159T180 149T212 145T252 144Q288 144 327 140T400 122T455 81T477 6Q477 -33 459 -62T408 -110T329 -140T228 -150Q214 -150 191 -149T142 -145T90 -134T43 -116T9 -87T-5 -46Q-5 -26 3 -11T25 15T56 32T90 42V44Q60 54 40 72T19 126Q19 144 28 160T52 188T84 209T117 222V224Q69 244 46 278T23 356Q23 399 43 429T94 478T161 505T228 514Q264 514 301 506T367 478Q371 488 385 500T417 521T456 537T495 544V416ZM228 24Q219 24 202 24T166 19T135 5T121 -22Q121 -37 133 -46T162 -59T198 -65T228 -66Q242 -66 261 -66T297 -61T327 -48T339 -22Q339 -5 326 4T295 18T258 23T228 24ZM228 442Q211 442 201 434T184 412T176 383T173 353Q173 339 175 325T184 300T201 281T228 273Q245 273 256 281T273 301T282 329T285 360Q285 375 282 389T272 415T255 434T228 442Z"/>
<glyph unicode="h" horiz-adv-x="500" d="M43 712H205V435H207Q233 473 269 493T350 514Q399 514 428 484T457 401V0H295V355Q295 375 287 387T256 400Q230 400 214 379L205 367V0H43V712Z"/>
<glyph unicode="i" horiz-adv-x="240" d="M39 502H201V0H39V502ZM39 712H201V568H39V712Z"/>
<glyph unicode="j" horiz-adv-x="240" d="M39 502H201V19Q201 -23 189 -52T158 -100T114 -129T66 -143T19 -149T-19 -150V-21Q-17 -23 -11 -23T0 -24Q23 -24 31 -11T39 31V502ZM39 712H201V568H39V712Z"/>
<glyph unicode="k" horiz-adv-x="481" d="M43 712H205V345H207L334 502H482L356 358L488 0H320L245 231H243L205 186V0H43V712Z"/>
<glyph unicode="l" horiz-adv-x="240" d="M39 712H201V0H39V712Z"/>
<glyph unicode="m" horiz-adv-x="740" d="M37 502H199V435H201Q227 473 263 493T344 514Q362 514 380 509T412 493T435 468T445 435H447Q473 473 509 493T590 514Q639 514 671 488T703 407V0H541V355Q541 375 533 387T502 400Q476 400 460 379L451 367V0H289V355Q289 375 281 387T250 400Q224 400 208 379L199 367V0H37V502Z"/>
<glyph unicode="n" horiz-adv-x="500" d="M43 502H205V435H207Q233 473 269 493T350 514Q399 514 428 484T457 401V0H295V355Q295 375 287 387T256 400Q230 400 214 379L205 367V0H43V502Z"/>
<glyph unicode="o" horiz-adv-x="482" d="M15 253Q15 309 29 357T71 440T142 494T241 514Q298 514 340 495T410 440T453 357T467 253Q467 194 454 146T412 62T342 8T241 -12Q183 -12 141 7T70 62T29 145T15 253ZM183 253Q183 205 186 174T197 124T215 98T241 90Q256 90 267 97T285 124T295 174T299 253Q299 340 287 376T241 412Q224 412 213 404T195 376T186 327T183 253Z"/>
<glyph unicode="p" horiz-adv-x="500" d="M213 109Q226 97 239 94T263 90Q283 90 294 101T310 132T316 180T317 242Q317 286 316 319T311 374T297 407T271 418Q251 418 235 405T213 378V109ZM51 502H207V449H209Q232 478 262 493T323 508Q398 508 441 447T485 270Q485 222 477 174T450 87T397 24T313 0Q283 0 259 11T213 44V-150H51V502Z"/>
<glyph unicode="q" horiz-adv-x="500" d="M287 343Q287 374 276 393T237 412Q202 412 193 367T183 237Q183 188 186 158T197 112T213 90T235 84Q251 84 264 91T287 110V343ZM449 -150H288V41L286 40Q263 14 238 4T183 -6Q138 -6 106 14T54 68T25 146T15 239Q15 282 25 329T58 416T116 482T200 508Q252 508 284 488T343 435L366 502H449V-150Z"/>
<glyph unicode="r" horiz-adv-x="352" d="M43 502H202V426H204Q211 450 227 466T265 493T311 509T360 514V350Q343 356 327 360T294 364Q274 364 260 362T236 354T219 342T205 325V0H43V502Z"/>
<glyph unicode="s" horiz-adv-x="426" d="M297 348Q286 371 269 391T221 412Q196 412 185 402T173 380Q173 360 191 347T236 324T296 302T355 272T401 227T419 159Q419 118 405 87T364 33T300 0T218 -12Q133 -12 80 28T7 130L131 169Q145 140 164 118T218 96Q241 96 255 106T269 133Q269 154 251 166T206 190T146 212T87 241T41 286T23 358Q23 378 33 405T67 456T127 497T218 514Q248 514 278 507T333 483T379 441T410 378L297 348Z"/>
<glyph unicode="t" horiz-adv-x="315" d="M56 388H-10V502H56V682H218V502H307V388H218V175Q218 162 219 151T224 132T239 119T270 114Q289 114 307 119V1Q283 -6 251 -9T193 -12Q128 -12 92 17T56 115V388Z"/>
<glyph unicode="u" horiz-adv-x="500" d="M457 0H295V67H293Q267 29 231 9T150 -12Q101 -12 72 18T43 101V502H205V147Q205 127 213 115T244 102Q269 102 286 123L295 135V502H457V0Z"/>
<glyph unicode="v" horiz-adv-x="408" d="M-8 502H160L217 229H219L288 502H416L255 0H133L-8 502Z"/>
<glyph unicode="w" horiz-adv-x="611" d="M-6 502H153L200 243H202L258 502H394L440 243H442L501 502H617L487 0H359L303 280H301L234 0H108L-6 502Z"/>
<glyph unicode="x" horiz-adv-x="445" d="M452 0H273L206 141L138 0H-7L145 240L-3 502H177L240 365L307 502H450L301 271L452 0Z"/>
<glyph unicode="y" horiz-adv-x="408" d="M159 502L218 211H220L289 502H416L247 -16Q234 -55 214 -81T168 -122T111 -143T43 -150Q31 -150 19 -149T-5 -146V-31Q18 -36 38 -36Q56 -36 72 -33T101 -23T121 -5T129 24Q129 33 128 45T122 69L-8 502H159Z"/>
<glyph unicode="z" horiz-adv-x="390" d="M4 84L203 394H32V502H386V406L201 108H385V0H4V84Z"/>
<glyph unicode="{" horiz-adv-x="333" d="M2 358Q9 358 24 360T56 368T83 386T95 419V574Q95 610 110 636T146 679T190 704T231 712H331V622H279Q259 622 248 616T230 600T223 579T221 557V408Q221 379 209 361T180 333T143 318T110 312V308Q124 307 143 303T179 288T209 259T221 212V63Q221 53 222 42T230 21T247 5T279 -2H331V-92H231Q214 -92 191 -84T146 -59T110 -16T95 46V201Q95 222 84 234T56 252T25 260T2 262V358Z"/>
<glyph unicode="|" horiz-adv-x="222" d="M171 750V-250H51V750H171Z"/>
<glyph unicode="}" horiz-adv-x="333" d="M331 262Q323 262 308 260T277 252T250 234T238 201V46Q238 10 223 -16T187 -59T143 -84T102 -92H2V-2H54Q74 -2 85 4T103 20T110 41T112 63V212Q112 241 124 259T153 288T189 303T223 308V312Q209 313 190 317T153 331T124 360T112 408V557Q112 567 111 578T103 599T86 615T54 622H2V712H102Q119 712 142 704T187 679T223 636T238 574V419Q238 398 249 386T277 368T308 360T331 358V262Z"/>
<glyph unicode="~" horiz-adv-x="600" d="M531 250Q520 234 508 219T481 191T448 172T406 164Q376 164 351 175T300 199T249 223T189 234Q172 234 160 228T137 211T119 187T105 160L69 256Q77 272 88 287T115 315T149 334T194 342Q222 342 251 331T309 307T362 283T407 272Q422 272 434 278T457 295T477 319T495 346L531 250Z"/>
<glyph unicode=" " horiz-adv-x="268"/>
<glyph unicode="£" horiz-adv-x="536" d="M12 395H84Q74 421 67 449T60 513Q60 568 78 608T127 675T199 713T286 726Q335 726 371 717T433 686T479 632T515 552L372 509Q367 527 362 544T347 575T324 597T288 606Q263 606 246 588T228 546Q228 526 232 506T243 466T257 428T270 395H408V341H282V303Q282 253 256 217T191 152L193 150H221Q261 150 295 140T360 130Q403 130 431 141T473 161L529 24Q520 17 503 10T465 -2T418 -10T368 -14Q323 -14 283 -7T203 11Q189 14 175 16T146 18Q91 18 44 -12L7 97Q36 108 60 119T101 144T128 176T138 219Q138 232 135 248T127 281T116 313T104 341H12V395Z"/>
<glyph unicode="¤" horiz-adv-x="536" d="M65 216Q43 241 31 277T19 356Q19 397 30 435T65 496L7 554L70 618L127 562Q150 580 188 592T267 604Q309 604 346 592T403 562L466 618L529 552L473 496Q493 475 504 437T515 356Q515 315 504 278T473 214L529 158L466 96L409 154Q386 133 348 121T267 108Q225 108 187 120T125 154L70 96L7 158L65 216ZM139 356Q139 329 149 306T176 266T217 238T267 228Q294 228 317 238T357 265T385 306T395 356Q395 383 385 406T358 446T317 474T267 484Q240 484 217 474T177 447T149 406T139 356Z"/>
<glyph unicode="¥" horiz-adv-x="536" d="M181 163H50V241H181V287L166 325H50V403H136L16 712H192L272 428H274L372 712H520L387 403H468V325H353L337 287V241H468V163H337V0H181V163Z"/>
<glyph unicode="¦" horiz-adv-x="222" d="M171 675V325H51V675H171ZM171 175V-175H51V175H171Z"/>
<glyph unicode="§" horiz-adv-x="536" d="M168 327Q168 309 182 294T217 267T258 245T293 231Q303 237 316 247T340 269T360 293T368 317Q368 341 352 357T313 384T265 404T222 421Q198 399 183 380T168 327ZM427 576Q396 592 363 605T294 618Q274 618 259 609T244 576Q244 561 263 550T312 528T375 503T438 467T486 413T506 334Q506 278 475 239T398 173Q433 159 454 125T475 47Q475 6 457 -25T408 -76T342 -107T269 -118Q211 -118 157 -101T51 -54L113 44Q147 24 183 7T258 -10Q268 -10 279 -9T299 -3T313 9T319 29Q319 53 298 70T244 102T175 134T105 174T52 231T30 312Q30 366 57 408T130 477V479Q113 490 101 511T88 572Q88 612 105 641T150 689T213 717T285 726Q336 726 387 713T483 677L427 576Z"/>
<glyph unicode="¨" horiz-adv-x="241" d="M-40 707H86V581H-40V707ZM155 707H281V581H155V707Z"/>
<glyph unicode="©" horiz-adv-x="800" d="M565 307Q555 240 511 206T407 172Q368 172 336 186T281 225T245 284T232 357Q232 397 244 431T279 490T334 529T407 543Q465 543 507 510T559 410H479Q475 440 454 452T407 465Q368 465 348 436T328 359Q328 312 347 281T407 250Q438 250 458 264T481 307H565ZM30 356Q30 432 59 499T138 617T256 697T400 726Q476 726 543 697T661 618T741 500T770 356Q770 279 741 212T662 95T544 15T400 -14Q323 -14 256 15T139 94T59 212T30 356ZM138 356Q138 296 157 246T210 159T293 102T400 82Q458 82 506 102T589 158T643 245T662 356Q662 416 643 466T590 553T507 610T400 630Q342 630 294 610T211 554T157 467T138 356Z"/>
<glyph unicode="«" horiz-adv-x="537" d="M464 471L535 400L389 259L535 118L464 47L243 259L464 471ZM223 471L294 400L148 259L294 118L223 47L2 259L223 471Z"/>
<glyph unicode="¬" horiz-adv-x="600" d="M433 305H47V425H553V108H433V305Z"/>
<glyph unicode="­" horiz-adv-x="296" d="M28 328H268V190H28V328Z"/>
<glyph unicode="®" horiz-adv-x="800" d="M346 179H268V535H410Q474 535 509 513T545 429Q545 401 538 382T519 352T492 335T462 328L551 179H465L386 323H346V179ZM346 389H414Q437 389 449 396T461 429Q461 455 449 462T414 469H346V389ZM30 356Q30 432 59 499T138 617T256 697T400 726Q476 726 543 697T661 618T741 500T770 356Q770 279 741 212T662 95T544 15T400 -14Q323 -14 256 15T139 94T59 212T30 356ZM138 356Q138 296 157 246T210 159T293 102T400 82Q458 82 506 102T589 158T643 245T662 356Q662 416 643 466T590 553T507 610T400 630Q342 630 294 610T211 554T157 467T138 356Z"/>
<glyph unicode="°" horiz-adv-x="400" d="M200 496Q232 496 254 518T277 573Q277 605 255 627T200 650Q168 650 146 628T123 573Q123 541 145 519T200 496ZM51 573Q51 604 62 631T94 678T142 710T200 722Q231 722 258 710T305 678T337 631T349 573Q349 542 337 515T305 468T258 436T200 424Q169 424 142 435T95 467T63 515T51 573Z"/>
<glyph unicode="±" horiz-adv-x="600" d="M240 506H360V388H553V268H360V150H240V268H47V388H240V506ZM47 120H553V0H47V120Z"/>
<glyph unicode="²" horiz-adv-x="360" d="M15 362Q54 395 91 429T156 495T202 552T219 592Q219 606 212 619T182 632Q158 632 147 616T132 579L23 603Q38 659 83 690T192 722Q220 722 247 716T297 695T332 657T345 602Q345 572 331 545T297 493T253 450T209 415L171 387V385H336V289H15V362Z"/>
<glyph unicode="³" horiz-adv-x="360" d="M115 544H149Q158 544 169 546T189 554T205 569T212 591Q212 611 201 624T171 638Q147 638 135 625T115 595L22 630Q44 675 86 698T187 722Q213 722 240 715T288 692T324 655T338 602Q338 579 330 563T308 536T278 519T247 508V506Q265 504 283 498T315 481T338 452T347 409Q347 377 332 353T291 314T234 291T171 283Q114 283 76 304T13 372L106 412Q116 392 129 380T167 367Q192 367 206 379T221 415Q221 432 215 442T198 457T173 464T144 466H115V544Z"/>
<glyph unicode="µ" horiz-adv-x="500" d="M318 49Q309 20 287 10T244 0Q231 0 223 1T207 7H205V-150H43V502H205V159Q205 139 213 127T244 114Q264 114 279 131T295 183V502H458V158Q458 132 465 124T486 114Q492 114 496 115V-3Q484 -8 466 -10T434 -12Q392 -12 366 0T320 49H318Z"/>
<glyph unicode="¶" horiz-adv-x="536" d="M193 363Q152 363 118 374T59 408T20 462T6 534Q6 588 24 622T74 677T147 704T234 712H506V-104H386V622H313V-104H193V363Z"/>
<glyph unicode="·" horiz-adv-x="268" d="M50 280Q50 315 74 339T134 364Q169 364 193 340T218 280Q218 245 194 221T134 196Q99 196 75 220T50 280Z"/>
<glyph unicode="»" horiz-adv-x="537" d="M314 47L243 118L389 259L243 400L314 471L535 259L314 47ZM73 47L2 118L148 259L2 400L73 471L294 259L73 47Z"/>
<glyph unicode="½" horiz-adv-x="805" d="M220 -23H128L547 735H639L220 -23ZM31 367H98V605L31 589V668Q40 669 57 674T91 686T124 701T144 716H212V367H279V289H31V367ZM444 73Q483 106 520 140T585 206T631 263T648 303Q648 317 641 330T611 343Q587 343 576 327T561 290L452 314Q467 370 512 401T621 433Q649 433 676 427T726 406T761 368T774 313Q774 283 760 256T726 204T682 161T638 126L600 98V96H765V0H444V73Z"/>
<glyph unicode="ƒ" horiz-adv-x="536" d="M443 325H353L330 41Q326 -7 319 -43T293 -102T243 -138T156 -150Q132 -150 110 -147T74 -138V-20Q79 -22 91 -23T124 -24Q144 -24 154 -13T166 21L193 325H109V403H199L215 591Q221 665 263 693T378 722Q430 722 466 711V593Q454 596 423 596Q401 596 389 587T374 560L359 403H443V325Z"/>
<glyph unicode="΄" horiz-adv-x="181" d="M138 580H38L71 724H224L138 580Z"/>
<glyph unicode="΅" horiz-adv-x="401" d="M-40 707H86V580H-40V707ZM315 707H441V580H315V707ZM218 580H118L151 724H304L218 580Z"/>
<glyph unicode="Ά" horiz-adv-x="652" d="M100 568H0L33 712H186L100 568ZM264 712H500L652 0H470L442 144H277L246 0H97L264 712ZM302 270H417L365 560H363L302 270Z"/>
<glyph unicode="Έ" horiz-adv-x="706" d="M100 568H0L33 712H186L100 568ZM252 712H700V574H432V430H612V292H432V144H700V0H252V712Z"/>
<glyph unicode="Ή" horiz-adv-x="798" d="M100 568H0L33 712H186L100 568ZM251 712H431V436H572V712H752V0H572V292H431V0H251V712Z"/>
<glyph unicode="Ί" horiz-adv-x="480" d="M100 568H0L33 712H186L100 568ZM251 712H431V0H251V712Z"/>
<glyph unicode="Ό" horiz-adv-x="728" d="M100 568H0L33 712H186L100 568ZM164 356Q164 424 177 490T223 609T308 694T441 726Q520 726 573 694T659 610T704 491T718 356Q718 288 705 222T659 103T574 18T441 -14Q361 -14 308 18T223 102T178 221T164 356ZM358 356Q358 303 359 260T368 185T393 136T441 118Q472 118 489 135T513 184T522 259T524 356Q524 408 523 452T514 527T489 576T441 594Q410 594 393 577T369 528T360 452T358 356Z"/>
<glyph unicode="Ύ" horiz-adv-x="783" d="M100 568H0L33 712H186L100 568ZM415 277L237 712H425L519 432L632 712H792L595 287V0H415V277Z"/>
<glyph unicode="Ώ" horiz-adv-x="734" d="M301 136Q263 148 239 173T200 233T179 310T173 398Q173 459 188 517T237 622T322 697T447 726Q520 726 572 697T657 622T705 517T721 398Q721 353 714 310T691 231T651 170T593 136H714V0H485V136Q506 155 515 190T528 264T530 340T529 398Q529 459 524 497T509 556T484 586T447 594Q425 594 410 586T384 556T369 496T364 398Q364 375 364 339T367 265T380 192T409 136V0H180V136H301ZM100 568H0L33 712H186L100 568Z"/>
<glyph unicode="ΐ" horiz-adv-x="281" d="M200 157Q200 131 214 123T246 114Q248 114 256 114T268 115V-3Q262 -5 252 -7T229 -10T206 -11T187 -12Q176 -12 162 -11T133 -8T104 0T79 14Q59 31 49 55T39 123V502H200V157ZM-99 707H27V580H-99V707ZM256 707H382V580H256V707ZM159 580H59L92 724H245L159 580Z"/>
<glyph unicode="Α" horiz-adv-x="555" d="M167 712H403L555 0H373L345 144H180L149 0H0L167 712ZM205 270H320L268 560H266L205 270Z"/>
<glyph unicode="Β" horiz-adv-x="574" d="M46 712H346Q395 712 433 699T499 664T540 610T555 542Q555 509 545 481T516 431T474 395T421 374V372Q491 355 529 311T568 196Q568 151 552 115T505 53T431 14T335 0H46V712ZM226 132H292Q307 132 322 136T351 150T373 177T382 222Q382 262 359 286T292 310H226V132ZM226 430H285Q334 430 354 452T375 507Q375 532 368 548T348 572T320 583T289 586H226V430Z"/>
<glyph unicode="Γ" horiz-adv-x="465" d="M46 712H465V574H226V0H46V712Z"/>
<glyph unicode="Δ" horiz-adv-x="555" d="M167 712H403L555 0H0L167 712ZM176 132H348L268 560H266L176 132Z"/>
<glyph unicode="Ε" horiz-adv-x="500" d="M46 712H494V574H226V430H406V292H226V144H494V0H46V712Z"/>
<glyph unicode="Ζ" horiz-adv-x="481" d="M477 0H0V90L262 580H32V712H481V622L219 132H477V0Z"/>
<glyph unicode="Η" horiz-adv-x="593" d="M46 712H226V436H367V712H547V0H367V292H226V0H46V712Z"/>
<glyph unicode="Θ" horiz-adv-x="574" d="M10 356Q10 424 23 490T69 609T154 694T287 726Q366 726 419 694T505 610T550 491T564 356Q564 288 551 222T505 103T420 18T287 -14Q207 -14 154 18T69 102T24 221T10 356ZM287 594Q261 594 245 582T220 547T208 492T204 420H370Q369 459 366 491T354 546T329 581T287 594ZM287 118Q312 118 328 130T353 164T365 218T369 288H204Q205 249 208 218T220 165T245 130T287 118Z"/>
<glyph unicode="Ι" horiz-adv-x="278" d="M49 712H229V0H49V712Z"/>
<glyph unicode="Κ" horiz-adv-x="574" d="M46 712H226V405H228L402 712H579L421 477L576 0H400L302 308H301L226 196V0H46V712Z"/>
<glyph unicode="Λ" horiz-adv-x="555" d="M268 560H266L149 0H0L167 712H403L555 0H373L268 560Z"/>
<glyph unicode="Μ" horiz-adv-x="759" d="M46 712H298L375 313H377L468 712H713V0H533V526H531L408 0H299L186 544H184V0H46V712Z"/>
<glyph unicode="Ν" horiz-adv-x="593" d="M46 712H196L401 329H403V712H547V0H403L192 397H190V0H46V712Z"/>
<glyph unicode="Ξ" horiz-adv-x="480" d="M6 712H474V574H6V712ZM474 144V0H6V144H474ZM54 433H416V295H54V433Z"/>
<glyph unicode="Ο" horiz-adv-x="574" d="M10 356Q10 424 23 490T69 609T154 694T287 726Q366 726 419 694T505 610T550 491T564 356Q564 288 551 222T505 103T420 18T287 -14Q207 -14 154 18T69 102T24 221T10 356ZM204 356Q204 303 205 260T214 185T239 136T287 118Q318 118 335 135T359 184T368 259T370 356Q370 408 369 452T360 527T335 576T287 594Q256 594 239 577T215 528T206 452T204 356Z"/>
<glyph unicode="Π" horiz-adv-x="593" d="M46 712H547V0H367V568H226V0H46V712Z"/>
<glyph unicode="Ρ" horiz-adv-x="556" d="M226 411H258Q277 411 297 415T333 429T360 456T370 498Q370 523 360 540T334 567T297 581T258 586H226V411ZM46 712H314Q364 712 408 700T485 664T537 601T556 510Q556 448 536 406T480 336T397 297T295 285Q278 285 261 286T226 289V0H46V712Z"/>
<glyph unicode="Σ" horiz-adv-x="480" d="M474 135V0H6V90L147 361L6 622V712H474V574H225L344 355L225 135H474Z"/>
<glyph unicode="Τ" horiz-adv-x="482" d="M-10 712H492V574H331V0H151V574H-10V712Z"/>
<glyph unicode="Υ" horiz-adv-x="537" d="M169 277L-9 712H179L273 432L386 712H546L349 287V0H169V277Z"/>
<glyph unicode="Φ" horiz-adv-x="798" d="M480 650Q637 642 714 575T792 369Q792 297 773 246T714 161T617 110T480 88V0H318V88Q240 92 182 109T84 161T26 246T6 369Q6 507 83 574T318 650V726H480V650ZM474 212Q541 212 574 245T608 364Q608 526 474 526V212ZM324 526Q190 526 190 364Q190 278 223 245T324 212V526Z"/>
<glyph unicode="Χ" horiz-adv-x="537" d="M11 712H208L284 526L377 712H540L359 387L546 0H352L257 214L156 0H-9L185 354L11 712Z"/>
<glyph unicode="Ψ" horiz-adv-x="662" d="M650 351Q650 300 635 260T591 193T523 149T436 130V0H256V124Q202 126 158 141T81 184T30 253T12 351V712H192V343Q192 308 206 288T256 262V712H436V265Q473 270 486 294T500 352V712H650V351Z"/>
<glyph unicode="Ω" horiz-adv-x="574" d="M141 136Q103 148 79 173T40 233T19 310T13 398Q13 459 28 517T77 622T162 697T287 726Q360 726 412 697T497 622T545 517T561 398Q561 353 554 310T531 231T491 170T433 136H554V0H325V136Q346 155 355 190T368 264T370 340T369 398Q369 459 364 497T349 556T324 586T287 594Q265 594 250 586T224 556T209 496T204 398Q204 375 204 339T207 265T220 192T249 136V0H20V136H141Z"/>
<glyph unicode="Ϊ" horiz-adv-x="264" d="M49 712H229V0H49V712ZM-24 911H102V785H-24V911ZM171 911H297V785H171V911Z"/>
<glyph unicode="Ϋ" horiz-adv-x="537" d="M169 277L-9 712H179L273 432L386 712H546L349 287V0H169V277ZM110 911H236V785H110V911ZM305 911H431V785H305V911Z"/>
<glyph unicode="ά" horiz-adv-x="500" d="M289 396Q282 406 269 412T238 419Q218 419 208 405T192 369T186 320T185 266Q185 227 186 195T191 139T205 103T230 90Q248 90 264 100T289 128V396ZM489 -3Q477 -8 459 -10T427 -12Q385 -12 359 0T313 49H311Q295 31 280 20T248 3T215 -4T180 -6Q137 -6 106 13T56 65T27 141T17 232Q17 286 25 336T52 424T103 486T183 509Q218 509 242 498T289 465V502H451V157Q451 131 458 123T479 113Q485 113 489 114V-3ZM258 580H158L191 724H344L258 580Z"/>
<glyph unicode="έ" horiz-adv-x="460" d="M131 265Q92 275 65 302T38 382Q38 421 58 446T108 486T175 507T242 513Q305 513 355 490T448 415L350 339Q330 375 307 388T254 401Q228 401 209 392T190 354Q190 333 202 320T250 307H291V211H248Q210 211 197 196T183 158Q183 128 203 118T252 107Q289 107 314 116T364 157L454 75Q410 27 356 8T234 -12Q197 -12 159 -5T91 20T41 66T21 137Q21 165 30 186T55 222T90 246T131 261V265ZM288 580H188L221 724H374L288 580Z"/>
<glyph unicode="ή" horiz-adv-x="500" d="M43 502H205V435H207Q233 473 269 493T350 514Q399 514 428 484T457 401V-150H295V355Q295 375 287 387T256 400Q230 400 214 379L205 367V0H43V502ZM308 580H208L241 724H394L308 580Z"/>
<glyph unicode="ί" horiz-adv-x="281" d="M200 157Q200 131 214 123T246 114Q248 114 256 114T268 115V-3Q262 -5 252 -7T229 -10T206 -11T187 -12Q176 -12 162 -11T133 -8T104 0T79 14Q59 31 49 55T39 123V502H200V157ZM163 580H63L96 724H249L163 580Z"/>
<glyph unicode="ΰ" horiz-adv-x="492" d="M477 262Q477 200 466 150T430 63T363 8T259 -12Q197 -12 156 5T89 53T54 125T43 214V502H205V179Q205 130 220 110T259 89Q280 89 291 103T309 138T316 183T317 229Q317 263 315 299T307 370T294 439T278 502H440Q462 441 469 378T477 262ZM14 707H140V580H14V707ZM369 707H495V580H369V707ZM272 580H172L205 724H358L272 580Z"/>
<glyph unicode="α" horiz-adv-x="500" d="M289 396Q282 406 269 412T238 419Q218 419 208 405T192 369T186 320T185 266Q185 227 186 195T191 139T205 103T230 90Q248 90 264 100T289 128V396ZM489 -3Q477 -8 459 -10T427 -12Q385 -12 359 0T313 49H311Q295 31 280 20T248 3T215 -4T180 -6Q137 -6 106 13T56 65T27 141T17 232Q17 286 25 336T52 424T103 486T183 509Q218 509 242 498T289 465V502H451V157Q451 131 458 123T479 113Q485 113 489 114V-3Z"/>
<glyph unicode="β" d="M51 513Q51 564 61 602T99 669Q137 706 176 716T255 726Q295 726 331 715T393 681T435 623T451 542Q451 504 446 479T432 436T410 407T382 388V386Q405 384 424 370T456 331T476 274T483 206Q483 160 472 121T439 52T384 5T305 -12Q278 -12 252 -2T213 23V-150H51V513ZM213 124Q222 107 237 97T269 86Q300 86 308 120T317 206Q317 247 316 271T310 309T295 326T266 330H256V426H261Q266 426 272 427T285 433T295 451T299 485V548Q299 596 289 610T256 624Q244 624 236 620T223 606T216 577T213 529V124Z"/>
<glyph unicode="γ" horiz-adv-x="459" d="M187 502Q216 439 239 362T273 209Q299 272 309 331T319 451Q319 465 318 477T315 502H443Q445 489 446 476T447 451Q447 395 436 344T406 242T359 138T301 26Q305 -19 306 -62T308 -150H146V-123Q146 -44 139 36T116 196T73 353T6 502H187Z"/>
<glyph unicode="δ" horiz-adv-x="462" d="M43 597Q43 637 60 662T105 702T164 721T227 726Q280 726 337 704T445 631L337 548Q308 587 282 605T224 623Q200 623 190 613T180 582Q180 545 268 502Q312 481 345 457T401 402T435 336T447 253Q447 193 435 145T396 61T327 7T227 -12Q173 -12 133 7T67 58T28 133T15 223Q15 269 24 307T54 374T106 420T183 439Q122 454 83 496T43 597ZM183 223Q183 156 191 123T230 90Q245 90 254 97T269 123T277 173T279 252Q279 284 275 312T250 364Q231 364 218 358T198 337T187 294T183 223Z"/>
<glyph unicode="ε" horiz-adv-x="460" d="M131 265Q92 275 65 302T38 382Q38 421 58 446T108 486T175 507T242 513Q305 513 355 490T448 415L350 339Q330 375 307 388T254 401Q228 401 209 392T190 354Q190 333 202 320T250 307H291V211H248Q210 211 197 196T183 158Q183 128 203 118T252 107Q289 107 314 116T364 157L454 75Q410 27 356 8T234 -12Q197 -12 159 -5T91 20T41 66T21 137Q21 165 30 186T55 222T90 246T131 261V265Z"/>
<glyph unicode="ζ" horiz-adv-x="395" d="M411 605Q357 566 316 528T247 448T205 355T191 242Q191 210 195 185T210 142T241 115T291 105Q318 105 336 96T364 70T379 31T384 -17Q384 -44 380 -70T370 -118L239 -91Q243 -80 247 -64T252 -37Q252 -26 246 -19T222 -12Q180 -12 143 3T78 51T34 130T18 243Q18 319 42 377T102 478T180 551T260 604H51V712H411V605Z"/>
<glyph unicode="η" horiz-adv-x="500" d="M43 502H205V435H207Q233 473 269 493T350 514Q399 514 428 484T457 401V-150H295V355Q295 375 287 387T256 400Q230 400 214 379L205 367V0H43V502Z"/>
<glyph unicode="θ" horiz-adv-x="476" d="M12 356Q12 437 22 505T58 622T127 699T238 727Q305 727 348 700T417 623T453 505T464 356Q464 274 454 206T418 90T348 15T238 -12Q172 -12 128 14T59 89T23 205T12 356ZM238 90Q259 90 270 103T287 144T294 212T296 307H180Q180 258 181 218T187 150T204 106T238 90ZM238 625Q218 625 207 614T189 579T182 516T180 421H296Q296 475 295 513T287 577T270 613T238 625Z"/>
<glyph unicode="ι" horiz-adv-x="281" d="M200 157Q200 131 214 123T246 114Q248 114 256 114T268 115V-3Q262 -5 252 -7T229 -10T206 -11T187 -12Q176 -12 162 -11T133 -8T104 0T79 14Q59 31 49 55T39 123V502H200V157Z"/>
<glyph unicode="κ" horiz-adv-x="481" d="M43 502H205V325H207L334 502H482L358 351L488 0H320L250 219H248L205 166V0H43V502Z"/>
<glyph unicode="λ" horiz-adv-x="542" d="M272 320L179 0H25L219 486L199 557Q192 581 174 591T132 601Q119 601 106 600T78 594V717Q84 719 95 721T120 724T145 725T165 726Q231 726 282 696T355 591L480 157Q487 132 500 123T531 113Q537 113 541 114V-3Q529 -8 512 -10T481 -12Q470 -12 456 -12T427 -9T398 -1T372 14Q355 29 347 50T328 107L272 320Z"/>
<glyph unicode="μ" horiz-adv-x="500" d="M318 49Q309 20 287 10T244 0Q231 0 223 1T207 7H205V-150H43V502H205V159Q205 139 213 127T244 114Q264 114 279 131T295 183V502H458V158Q458 132 465 124T486 114Q492 114 496 115V-3Q484 -8 466 -10T434 -12Q392 -12 366 0T320 49H318Z"/>
<glyph unicode="ν" horiz-adv-x="442" d="M426 502Q428 489 429 476T430 451Q430 392 416 336T380 223T328 112T269 0H147L6 502H174L241 179H243Q273 241 287 313T302 451Q302 465 301 477T298 502H426Z"/>
<glyph unicode="ξ" horiz-adv-x="397" d="M241 624Q216 624 197 606T178 540Q178 486 200 464T265 441H321V325H268Q227 325 204 302T180 213Q180 179 190 158T217 125T257 109T306 105Q333 105 351 96T380 70T395 31T400 -15Q400 -41 396 -67T385 -118L254 -91Q258 -80 262 -64T267 -37Q267 -26 261 -19T237 -12Q129 -12 72 39T14 205Q14 237 22 269T47 326T91 368T154 386V388Q128 391 105 401T64 431T36 477T25 542Q25 588 42 623T87 680T153 714T231 726Q262 726 292 723T350 707T401 673T443 615L311 558Q304 582 287 603T241 624Z"/>
<glyph unicode="ο" horiz-adv-x="482" d="M15 253Q15 309 29 357T71 440T142 494T241 514Q298 514 340 495T410 440T453 357T467 253Q467 194 454 146T412 62T342 8T241 -12Q183 -12 141 7T70 62T29 145T15 253ZM183 253Q183 205 186 174T197 124T215 98T241 90Q256 90 267 97T285 124T295 174T299 253Q299 340 287 376T241 412Q224 412 213 404T195 376T186 327T183 253Z"/>
<glyph unicode="π" horiz-adv-x="576" d="M6 388V502H570V388H495V0H333V388H243V0H81V388H6Z"/>
<glyph unicode="ρ" horiz-adv-x="500" d="M213 109Q226 97 239 94T263 90Q283 90 294 101T310 132T316 180T317 242Q317 286 316 319T310 374T294 407T263 418Q243 418 228 400T213 329V109ZM51 292Q51 343 60 383T101 454Q121 474 143 486T186 504T227 511T262 513Q324 513 366 497T435 449T473 372T485 270Q485 222 477 174T450 87T397 24T313 0Q283 0 259 11T213 44V-150H51V292Z"/>
<glyph unicode="ς" horiz-adv-x="455" d="M249 411Q229 411 216 400T196 368T185 322T182 265Q182 231 184 202T198 152T235 118T308 105Q335 105 353 96T382 70T397 32T402 -14Q402 -40 398 -67T387 -119L256 -92Q260 -81 264 -65T269 -38Q269 -27 263 -20T239 -13Q132 -13 74 50T15 259Q15 310 28 356T68 437T138 492T237 513Q268 513 298 510T356 495T408 462T453 402L322 347Q305 383 291 397T249 411Z"/>
<glyph unicode="σ" horiz-adv-x="503" d="M406 394Q413 386 420 370T433 333T442 292T446 253Q446 194 435 146T398 62T332 8T233 -12Q175 -12 135 7T69 62T32 145T20 253Q20 309 34 355T75 433T145 484T244 502H491V395L406 394ZM278 253Q278 272 278 294T275 336T267 371T253 394H244Q227 394 216 389T199 367T191 324T188 253Q188 205 189 174T195 124T209 98T233 90Q248 90 257 97T270 124T276 174T278 253Z"/>
<glyph unicode="τ" horiz-adv-x="426" d="M292 388V175Q292 162 293 151T298 132T313 119T344 114Q363 114 381 119V1Q357 -6 325 -9T267 -12Q202 -12 166 17T130 115V388H6V502H424V388H292Z"/>
<glyph unicode="υ" horiz-adv-x="485" d="M477 262Q477 200 466 150T430 63T363 8T259 -12Q197 -12 156 5T89 53T54 125T43 214V502H205V179Q205 130 220 110T259 89Q280 89 291 103T309 138T316 183T317 229Q317 263 315 299T307 370T294 439T278 502H440Q462 441 469 378T477 262Z"/>
<glyph unicode="φ" horiz-adv-x="694" d="M429 96Q461 104 479 121T507 160T518 206T520 253Q520 275 518 299T507 345T480 384T429 409V96ZM265 592H429V513Q493 513 540 493T618 439T664 356T679 253Q679 197 664 150T619 67T541 12T429 -8V-150H265V-9Q200 -9 153 11T76 67T30 149T15 253Q15 308 29 356T74 438T152 493T265 513V592ZM265 409Q233 401 215 384T187 346T176 300T174 253Q174 230 176 206T187 160T214 121T265 96V409Z"/>
<glyph unicode="χ" horiz-adv-x="447" d="M293 199L479 -150H300L218 31L145 -150H0L159 156L-12 502H168L238 323L314 502H457L293 199Z"/>
<glyph unicode="ψ" horiz-adv-x="697" d="M269 -9Q206 -4 163 10T94 51T55 118T43 214V502H205V179Q205 144 217 125T269 99V592H431V96Q465 109 483 129T510 172T520 222T522 273Q522 345 510 398T482 502H644Q663 450 672 403T682 301Q682 240 671 187T631 93T554 26T431 -8V-150H269V-9Z"/>
<glyph unicode="ω" horiz-adv-x="676" d="M257 392H419V179Q419 130 426 110T457 89Q472 89 481 99T494 127T500 164T501 204Q501 240 498 279T488 358T472 434T452 502H614Q636 441 648 378T661 262Q661 200 653 150T624 63T564 8T463 -12Q417 -12 388 6T337 55Q313 23 286 6T213 -12Q151 -12 113 7T53 63T23 149T15 262Q15 315 27 378T62 502H224Q213 471 205 435T189 361T179 284T175 209Q175 189 176 168T181 130T194 101T219 89Q243 89 250 109T257 179V392Z"/>
<glyph unicode="ϊ" horiz-adv-x="281" d="M200 157Q200 131 214 123T246 114Q248 114 256 114T268 115V-3Q262 -5 252 -7T229 -10T206 -11T187 -12Q176 -12 162 -11T133 -8T104 0T79 14Q59 31 49 55T39 123V502H200V157ZM-40 707H86V581H-40V707ZM155 707H281V581H155V707Z"/>
<glyph unicode="ϋ" horiz-adv-x="492" d="M477 262Q477 200 466 150T430 63T363 8T259 -12Q197 -12 156 5T89 53T54 125T43 214V502H205V179Q205 130 220 110T259 89Q280 89 291 103T309 138T316 183T317 229Q317 263 315 299T307 370T294 439T278 502H440Q462 441 469 378T477 262ZM82 707H208V581H82V707ZM277 707H403V581H277V707Z"/>
<glyph unicode="ό" horiz-adv-x="482" d="M15 253Q15 309 29 357T71 440T142 494T241 514Q298 514 340 495T410 440T453 357T467 253Q467 194 454 146T412 62T342 8T241 -12Q183 -12 141 7T70 62T29 145T15 253ZM183 253Q183 205 186 174T197 124T215 98T241 90Q256 90 267 97T285 124T295 174T299 253Q299 340 287 376T241 412Q224 412 213 404T195 376T186 327T183 253ZM278 580H178L211 724H364L278 580Z"/>
<glyph unicode="ύ" horiz-adv-x="492" d="M477 262Q477 200 466 150T430 63T363 8T259 -12Q197 -12 156 5T89 53T54 125T43 214V502H205V179Q205 130 220 110T259 89Q280 89 291 103T309 138T316 183T317 229Q317 263 315 299T307 370T294 439T278 502H440Q462 441 469 378T477 262ZM278 580H178L211 724H364L278 580Z"/>
<glyph unicode="ώ" horiz-adv-x="676" d="M257 392H419V179Q419 130 426 110T457 89Q472 89 481 99T494 127T500 164T501 204Q501 240 498 279T488 358T472 434T452 502H614Q636 441 648 378T661 262Q661 200 653 150T624 63T564 8T463 -12Q417 -12 388 6T337 55Q313 23 286 6T213 -12Q151 -12 113 7T53 63T23 149T15 262Q15 315 27 378T62 502H224Q213 471 205 435T189 361T179 284T175 209Q175 189 176 168T181 130T194 101T219 89Q243 89 250 109T257 179V392ZM388 580H288L321 724H474L388 580Z"/>
<glyph unicode="–" horiz-adv-x="500" d="M0 325H500V193H0V325Z"/>
<glyph unicode="—" horiz-adv-x="1000" d="M0 325H1000V193H0V325Z"/>
<glyph unicode="―" horiz-adv-x="1000" d="M0 325H1000V193H0V325Z"/>
<glyph unicode="‘" horiz-adv-x="268" d="M221 377H47V529L147 712H238L159 551H221V377Z"/>
<glyph unicode="’" horiz-adv-x="268" d="M47 712H221V560L121 377H30L109 538H47V712Z"/>
<glyph unicode="‚" horiz-adv-x="268" d="M47 174H221V22L121 -161H30L109 0H47V174Z"/>
<glyph unicode="“" horiz-adv-x="519" d="M472 377H298V529L398 712H489L410 551H472V377ZM221 377H47V529L147 712H238L159 551H221V377Z"/>
<glyph unicode="”" horiz-adv-x="519" d="M298 712H472V560L372 377H281L360 538H298V712ZM47 712H221V560L121 377H30L109 538H47V712Z"/>
<glyph unicode="„" horiz-adv-x="519" d="M298 174H472V22L372 -161H281L360 0H298V174ZM47 174H221V22L121 -161H30L109 0H47V174Z"/>
<glyph unicode="†" horiz-adv-x="536" d="M306 535L316 525L478 560V416L316 451L308 440Q313 412 324 377T352 296Q329 197 321 97T307 -104H229Q224 -3 216 97T184 296Q200 342 211 377T228 440L220 451L58 416V560L220 525L230 535L194 712H342L306 535Z"/>
<glyph unicode="‡" horiz-adv-x="536" d="M306 535L316 525L478 560V416L308 451L300 440Q306 402 316 370T338 304Q327 272 317 239T300 168L308 157L478 192V48L316 83L306 73L342 -104H194L230 73L220 83L58 48V192L228 157L236 168Q230 206 220 238T198 304Q210 338 220 370T236 440L228 451L58 416V560L220 525L230 535L194 712H342L306 535Z"/>
<glyph unicode="•" horiz-adv-x="500" d="M72 356Q72 393 86 425T124 482T180 520T250 534Q287 534 319 520T376 482T414 426T428 356Q428 319 414 287T376 230T320 192T250 178Q213 178 181 192T124 230T86 286T72 356Z"/>
<glyph unicode="…" horiz-adv-x="1000" d="M80 174H254V0H80V174ZM413 174H587V0H413V174ZM746 174H920V0H746V174Z"/>
<glyph unicode="‰" horiz-adv-x="981" d="M523 62Q544 62 547 92T551 176Q551 230 548 260T523 290Q502 290 499 260T495 176Q495 122 498 92T523 62ZM523 -10Q483 -10 458 6T418 50T399 110T393 176Q393 209 398 242T418 302T457 345T523 362Q563 362 588 346T628 302T647 242T653 176Q653 143 648 110T628 50T589 7T523 -10ZM154 422Q175 422 178 452T182 536Q182 590 179 620T154 650Q133 650 130 620T126 536Q126 482 129 452T154 422ZM154 350Q114 350 89 366T49 410T30 470T24 536Q24 569 29 602T49 662T88 705T154 722Q194 722 219 706T259 662T278 602T284 536Q284 503 279 470T259 410T220 367T154 350ZM172 -23H80L499 735H591L172 -23ZM827 -10Q787 -10 762 6T722 50T703 110T697 176Q697 209 702 242T722 302T761 345T827 362Q867 362 892 346T932 302T951 242T957 176Q957 143 952 110T932 50T893 7T827 -10ZM827 62Q848 62 851 92T855 176Q855 230 852 260T827 290Q806 290 803 260T799 176Q799 122 802 92T827 62Z"/>
<glyph unicode="‹" horiz-adv-x="296" d="M223 471L294 400L148 259L294 118L223 47L2 259L223 471Z"/>
<glyph unicode="›" horiz-adv-x="296" d="M73 47L2 118L148 259L2 400L73 471L294 259L73 47Z"/>
<glyph unicode="€" horiz-adv-x="536" d="M457 550Q444 561 431 568T400 583Q381 591 365 594T331 598Q301 598 281 589T248 553Q241 539 238 522T234 487H436L411 409H232Q231 386 231 366T231 325H383L358 247H231Q231 230 233 211T241 176Q253 138 273 126T312 114Q330 114 350 123T384 162Q388 170 391 180T395 203L536 159Q528 124 513 98T481 55Q454 27 409 7T300 -14Q260 -14 230 -6T177 15T139 42T114 69Q100 86 90 108T71 154T58 202T51 247H-14L12 325H46Q45 337 45 346T45 366Q45 377 45 386T46 409H-14L12 487H53Q55 500 59 520T72 562T93 608T124 651Q146 676 170 691T220 714T269 724T315 726Q340 726 372 723T439 708Q461 700 478 692T509 674L457 550Z"/>
<glyph unicode="™" horiz-adv-x="1000" d="M128 622H16V712H360V622H248V300H128V622ZM836 568H834L743 300H655L564 568H562V300H454V712H610L699 473L788 712H944V300H836V568Z"/>

<hkern u1="," u2="’" k="37"/>
<hkern u1="," u2="”" k="37"/>
<hkern u1="." u2="’" k="37"/>
<hkern u1="." u2="”" k="37"/>
<hkern u1="A" u2="T" k="37"/>
<hkern u1="A" u2="V" k="18"/>
<hkern u1="A" u2="W" k="18"/>
<hkern u1="A" u2="Y" k="37"/>
<hkern u1="A" u2="v" k="18"/>
<hkern u1="A" u2="w" k="18"/>
<hkern u1="A" u2="y" k="18"/>
<hkern u1="A" u2="’" k="55"/>
<hkern u1="F" u2="," k="111"/>
<hkern u1="F" u2="." k="111"/>
<hkern u1="F" u2="A" k="37"/>
<hkern u1="L" u2="T" k="74"/>
<hkern u1="L" u2="V" k="74"/>
<hkern u1="L" u2="W" k="74"/>
<hkern u1="L" u2="Y" k="100"/>
<hkern u1="L" u2="y" k="37"/>
<hkern u1="L" u2="’" k="129"/>
<hkern u1="P" u2="," k="140"/>
<hkern u1="P" u2="." k="140"/>
<hkern u1="P" u2="A" k="30"/>
<hkern u1="R" u2="V" k="-10"/>
<hkern u1="R" u2="W" k="-10"/>
<hkern u1="T" u2="," k="92"/>
<hkern u1="T" u2="-" k="74"/>
<hkern u1="T" u2="." k="92"/>
<hkern u1="T" u2=":" k="74"/>
<hkern u1="T" u2=";" k="74"/>
<hkern u1="T" u2="A" k="37"/>
<hkern u1="T" u2="a" k="74"/>
<hkern u1="T" u2="c" k="74"/>
<hkern u1="T" u2="e" k="74"/>
<hkern u1="T" u2="i" k="24"/>
<hkern u1="T" u2="o" k="74"/>
<hkern u1="T" u2="r" k="55"/>
<hkern u1="T" u2="s" k="55"/>
<hkern u1="T" u2="u" k="55"/>
<hkern u1="T" u2="w" k="74"/>
<hkern u1="T" u2="y" k="55"/>
<hkern u1="V" u2="," k="92"/>
<hkern u1="V" u2="-" k="37"/>
<hkern u1="V" u2="." k="92"/>
<hkern u1="V" u2=":" k="37"/>
<hkern u1="V" u2=";" k="37"/>
<hkern u1="V" u2="A" k="37"/>
<hkern u1="V" u2="a" k="55"/>
<hkern u1="V" u2="e" k="37"/>
<hkern u1="V" u2="i" k="18"/>
<hkern u1="V" u2="o" k="37"/>
<hkern u1="V" u2="r" k="37"/>
<hkern u1="V" u2="u" k="37"/>
<hkern u1="V" u2="y" k="18"/>
<hkern u1="W" u2="," k="74"/>
<hkern u1="W" u2="-" k="37"/>
<hkern u1="W" u2="." k="74"/>
<hkern u1="W" u2=":" k="37"/>
<hkern u1="W" u2=";" k="37"/>
<hkern u1="W" u2="A" k="18"/>
<hkern u1="W" u2="a" k="37"/>
<hkern u1="W" u2="e" k="37"/>
<hkern u1="W" u2="i" k="18"/>
<hkern u1="W" u2="o" k="37"/>
<hkern u1="W" u2="r" k="18"/>
<hkern u1="W" u2="u" k="18"/>
<hkern u1="W" u2="y" k="18"/>
<hkern u1="Y" u2="," k="111"/>
<hkern u1="Y" u2="-" k="55"/>
<hkern u1="Y" u2="." k="111"/>
<hkern u1="Y" u2=":" k="55"/>
<hkern u1="Y" u2=";" k="55"/>
<hkern u1="Y" u2="A" k="47"/>
<hkern u1="Y" u2="a" k="74"/>
<hkern u1="Y" u2="e" k="74"/>
<hkern u1="Y" u2="i" k="37"/>
<hkern u1="Y" u2="o" k="74"/>
<hkern u1="Y" u2="p" k="55"/>
<hkern u1="Y" u2="q" k="74"/>
<hkern u1="Y" u2="u" k="55"/>
<hkern u1="Y" u2="v" k="37"/>
<hkern u1="r" u2="," k="92"/>
<hkern u1="r" u2="." k="92"/>
<hkern u1="v" u2="," k="55"/>
<hkern u1="v" u2="." k="55"/>
<hkern u1="w" u2="," k="37"/>
<hkern u1="w" u2="." k="37"/>
<hkern u1="y" u2="," k="55"/>
<hkern u1="y" u2="." k="55"/>
<hkern u1="‘" u2="‘" k="17"/>
<hkern u1="’" u2="s" k="74"/>
<hkern u1="’" u2="t" k="18"/>
<hkern u1="’" u2="’" k="17"/>
<hkern u1="Έ" u2="ά" k="-22"/>
<hkern u1="Έ" u2="α" k="-22"/>
<hkern u1="Έ" u2="ξ" k="-26"/>
<hkern u1="Έ" u2="ω" k="-24"/>
<hkern u1="Έ" u2="ώ" k="-24"/>
<hkern u1="Ύ" u2="ά" k="68"/>
<hkern u1="Ύ" u2="α" k="68"/>
<hkern u1="Ύ" u2="γ" k="44"/>
<hkern u1="Ύ" u2="κ" k="44"/>
<hkern u1="Ύ" u2="ο" k="68"/>
<hkern u1="Ύ" u2="ρ" k="68"/>
<hkern u1="Ύ" u2="σ" k="68"/>
<hkern u1="Ύ" u2="φ" k="68"/>
<hkern u1="Ύ" u2="ψ" k="44"/>
<hkern u1="Ύ" u2="ω" k="68"/>
<hkern u1="Ύ" u2="ό" k="68"/>
<hkern u1="Ύ" u2="ώ" k="68"/>
<hkern u1="Ώ" u2="χ" k="-24"/>
<hkern u1="ΐ" u2="τ" k="24"/>
<hkern u1="Α" u2="Τ" k="24"/>
<hkern u1="Α" u2="Υ" k="34"/>
<hkern u1="Α" u2="Ϋ" k="34"/>
<hkern u1="Α" u2="ν" k="24"/>
<hkern u1="Β" u2="δ" k="-18"/>
<hkern u1="Β" u2="λ" k="24"/>
<hkern u1="Γ" u2="Δ" k="32"/>
<hkern u1="Γ" u2="ΐ" k="34"/>
<hkern u1="Γ" u2="Α" k="24"/>
<hkern u1="Γ" u2="Λ" k="32"/>
<hkern u1="Γ" u2="ά" k="44"/>
<hkern u1="Γ" u2="έ" k="44"/>
<hkern u1="Γ" u2="ή" k="44"/>
<hkern u1="Γ" u2="ί" k="34"/>
<hkern u1="Γ" u2="ΰ" k="36"/>
<hkern u1="Γ" u2="α" k="44"/>
<hkern u1="Γ" u2="γ" k="32"/>
<hkern u1="Γ" u2="ε" k="44"/>
<hkern u1="Γ" u2="η" k="44"/>
<hkern u1="Γ" u2="ι" k="34"/>
<hkern u1="Γ" u2="κ" k="44"/>
<hkern u1="Γ" u2="ν" k="44"/>
<hkern u1="Γ" u2="ο" k="48"/>
<hkern u1="Γ" u2="ρ" k="52"/>
<hkern u1="Γ" u2="σ" k="48"/>
<hkern u1="Γ" u2="υ" k="36"/>
<hkern u1="Γ" u2="ω" k="44"/>
<hkern u1="Γ" u2="ϊ" k="34"/>
<hkern u1="Γ" u2="ϋ" k="36"/>
<hkern u1="Γ" u2="ό" k="48"/>
<hkern u1="Γ" u2="ύ" k="36"/>
<hkern u1="Γ" u2="ώ" k="44"/>
<hkern u1="Ε" u2="Ξ" k="-6"/>
<hkern u1="Ε" u2="Τ" k="-12"/>
<hkern u1="Θ" u2="Υ" k="34"/>
<hkern u1="Θ" u2="Ϋ" k="34"/>
<hkern u1="Θ" u2="ρ" k="24"/>
<hkern u1="Κ" u2="Φ" k="32"/>
<hkern u1="Λ" u2="Υ" k="34"/>
<hkern u1="Λ" u2="Ϋ" k="34"/>
<hkern u1="Ο" u2="Υ" k="24"/>
<hkern u1="Ο" u2="Ϋ" k="24"/>
<hkern u1="Ο" u2="λ" k="32"/>
<hkern u1="Ο" u2="χ" k="-14"/>
<hkern u1="Ρ" u2="Δ" k="24"/>
<hkern u1="Ρ" u2="Α" k="24"/>
<hkern u1="Ρ" u2="Λ" k="24"/>
<hkern u1="Σ" u2="Τ" k="-18"/>
<hkern u1="Τ" u2="Α" k="24"/>
<hkern u1="Τ" u2="ά" k="44"/>
<hkern u1="Τ" u2="έ" k="44"/>
<hkern u1="Τ" u2="ή" k="32"/>
<hkern u1="Τ" u2="ΰ" k="44"/>
<hkern u1="Τ" u2="α" k="44"/>
<hkern u1="Τ" u2="ε" k="44"/>
<hkern u1="Τ" u2="η" k="32"/>
<hkern u1="Τ" u2="ο" k="44"/>
<hkern u1="Τ" u2="σ" k="44"/>
<hkern u1="Τ" u2="υ" k="44"/>
<hkern u1="Τ" u2="ω" k="44"/>
<hkern u1="Τ" u2="ϋ" k="44"/>
<hkern u1="Τ" u2="ό" k="44"/>
<hkern u1="Τ" u2="ύ" k="44"/>
<hkern u1="Τ" u2="ώ" k="44"/>
<hkern u1="Υ" u2="μ" k="32"/>
<hkern u1="Υ" u2="Δ" k="34"/>
<hkern u1="Υ" u2="ΐ" k="48"/>
<hkern u1="Υ" u2="Α" k="34"/>
<hkern u1="Υ" u2="Θ" k="34"/>
<hkern u1="Υ" u2="Λ" k="34"/>
<hkern u1="Υ" u2="Ο" k="24"/>
<hkern u1="Υ" u2="Τ" k="-32"/>
<hkern u1="Υ" u2="Φ" k="34"/>
<hkern u1="Υ" u2="ά" k="62"/>
<hkern u1="Υ" u2="έ" k="62"/>
<hkern u1="Υ" u2="ί" k="48"/>
<hkern u1="Υ" u2="ΰ" k="48"/>
<hkern u1="Υ" u2="α" k="62"/>
<hkern u1="Υ" u2="ε" k="62"/>
<hkern u1="Υ" u2="ι" k="48"/>
<hkern u1="Υ" u2="κ" k="44"/>
<hkern u1="Υ" u2="ν" k="32"/>
<hkern u1="Υ" u2="ο" k="48"/>
<hkern u1="Υ" u2="σ" k="48"/>
<hkern u1="Υ" u2="υ" k="48"/>
<hkern u1="Υ" u2="φ" k="52"/>
<hkern u1="Υ" u2="ϊ" k="48"/>
<hkern u1="Υ" u2="ϋ" k="48"/>
<hkern u1="Υ" u2="ό" k="48"/>
<hkern u1="Υ" u2="ύ" k="48"/>
<hkern u1="Φ" u2="Υ" k="34"/>
<hkern u1="Φ" u2="Ϋ" k="34"/>
<hkern u1="Φ" u2="λ" k="32"/>
<hkern u1="Ϋ" u2="μ" k="32"/>
<hkern u1="Ϋ" u2="Δ" k="34"/>
<hkern u1="Ϋ" u2="ΐ" k="48"/>
<hkern u1="Ϋ" u2="Α" k="34"/>
<hkern u1="Ϋ" u2="Θ" k="34"/>
<hkern u1="Ϋ" u2="Λ" k="34"/>
<hkern u1="Ϋ" u2="Ο" k="24"/>
<hkern u1="Ϋ" u2="Τ" k="-32"/>
<hkern u1="Ϋ" u2="Φ" k="34"/>
<hkern u1="Ϋ" u2="ά" k="62"/>
<hkern u1="Ϋ" u2="έ" k="62"/>
<hkern u1="Ϋ" u2="ί" k="48"/>
<hkern u1="Ϋ" u2="ΰ" k="48"/>
<hkern u1="Ϋ" u2="α" k="62"/>
<hkern u1="Ϋ" u2="ε" k="62"/>
<hkern u1="Ϋ" u2="ι" k="48"/>
<hkern u1="Ϋ" u2="κ" k="44"/>
<hkern u1="Ϋ" u2="ν" k="32"/>
<hkern u1="Ϋ" u2="ο" k="48"/>
<hkern u1="Ϋ" u2="σ" k="48"/>
<hkern u1="Ϋ" u2="υ" k="48"/>
<hkern u1="Ϋ" u2="φ" k="52"/>
<hkern u1="Ϋ" u2="ϊ" k="48"/>
<hkern u1="Ϋ" u2="ϋ" k="48"/>
<hkern u1="Ϋ" u2="ό" k="48"/>
<hkern u1="Ϋ" u2="ύ" k="48"/>
<hkern u1="ί" u2="τ" k="24"/>
<hkern u1="ΰ" u2="ά" k="-18"/>
<hkern u1="ΰ" u2="α" k="-18"/>
<hkern u1="ΰ" u2="δ" k="-20"/>
<hkern u1="ΰ" u2="ζ" k="-18"/>
<hkern u1="ΰ" u2="θ" k="-20"/>
<hkern u1="ΰ" u2="ο" k="-20"/>
<hkern u1="ΰ" u2="ς" k="-18"/>
<hkern u1="ΰ" u2="σ" k="-18"/>
<hkern u1="ΰ" u2="φ" k="-18"/>
<hkern u1="ΰ" u2="ω" k="-18"/>
<hkern u1="ΰ" u2="ό" k="-20"/>
<hkern u1="ΰ" u2="ώ" k="-18"/>
<hkern u1="β" u2="ά" k="-18"/>
<hkern u1="β" u2="α" k="-18"/>
<hkern u1="β" u2="δ" k="-18"/>
<hkern u1="β" u2="θ" k="-18"/>
<hkern u1="β" u2="λ" k="18"/>
<hkern u1="β" u2="ο" k="-18"/>
<hkern u1="β" u2="ς" k="-18"/>
<hkern u1="β" u2="σ" k="-18"/>
<hkern u1="β" u2="φ" k="-18"/>
<hkern u1="β" u2="ω" k="-18"/>
<hkern u1="β" u2="ό" k="-18"/>
<hkern u1="β" u2="ώ" k="-18"/>
<hkern u1="γ" u2="λ" k="46"/>
<hkern u1="δ" u2="ά" k="-18"/>
<hkern u1="δ" u2="α" k="-18"/>
<hkern u1="δ" u2="δ" k="-18"/>
<hkern u1="δ" u2="θ" k="-18"/>
<hkern u1="δ" u2="ο" k="-18"/>
<hkern u1="δ" u2="ς" k="-18"/>
<hkern u1="δ" u2="σ" k="-18"/>
<hkern u1="δ" u2="φ" k="-18"/>
<hkern u1="δ" u2="ω" k="-18"/>
<hkern u1="δ" u2="ό" k="-18"/>
<hkern u1="δ" u2="ώ" k="-18"/>
<hkern u1="ζ" u2="ο" k="12"/>
<hkern u1="ζ" u2="ω" k="12"/>
<hkern u1="ζ" u2="ό" k="12"/>
<hkern u1="ζ" u2="ώ" k="12"/>
<hkern u1="θ" u2="ά" k="-18"/>
<hkern u1="θ" u2="α" k="-18"/>
<hkern u1="θ" u2="δ" k="-18"/>
<hkern u1="θ" u2="θ" k="-18"/>
<hkern u1="θ" u2="λ" k="30"/>
<hkern u1="θ" u2="ο" k="-18"/>
<hkern u1="θ" u2="ς" k="-18"/>
<hkern u1="θ" u2="σ" k="-18"/>
<hkern u1="θ" u2="φ" k="-18"/>
<hkern u1="θ" u2="ω" k="-18"/>
<hkern u1="θ" u2="ό" k="-18"/>
<hkern u1="θ" u2="ώ" k="-18"/>
<hkern u1="ι" u2="τ" k="24"/>
<hkern u1="κ" u2="τ" k="-12"/>
<hkern u1="λ" u2="ν" k="32"/>
<hkern u1="λ" u2="τ" k="48"/>
<hkern u1="ν" u2="λ" k="48"/>
<hkern u1="ο" u2="ά" k="-18"/>
<hkern u1="ο" u2="α" k="-18"/>
<hkern u1="ο" u2="γ" k="24"/>
<hkern u1="ο" u2="δ" k="-18"/>
<hkern u1="ο" u2="θ" k="-18"/>
<hkern u1="ο" u2="λ" k="24"/>
<hkern u1="ο" u2="ο" k="-18"/>
<hkern u1="ο" u2="ς" k="-18"/>
<hkern u1="ο" u2="σ" k="-18"/>
<hkern u1="ο" u2="φ" k="-18"/>
<hkern u1="ο" u2="ω" k="-18"/>
<hkern u1="ο" u2="ό" k="-18"/>
<hkern u1="ο" u2="ώ" k="-18"/>
<hkern u1="ρ" u2="ά" k="-18"/>
<hkern u1="ρ" u2="α" k="-18"/>
<hkern u1="ρ" u2="δ" k="-18"/>
<hkern u1="ρ" u2="θ" k="-18"/>
<hkern u1="ρ" u2="ο" k="-18"/>
<hkern u1="ρ" u2="ς" k="-18"/>
<hkern u1="ρ" u2="σ" k="-18"/>
<hkern u1="ρ" u2="φ" k="-18"/>
<hkern u1="ρ" u2="ω" k="-18"/>
<hkern u1="ρ" u2="ό" k="-18"/>
<hkern u1="ρ" u2="ώ" k="-18"/>
<hkern u1="σ" u2="λ" k="48"/>
<hkern u1="σ" u2="τ" k="-24"/>
<hkern u1="τ" u2="θ" k="-28"/>
<hkern u1="τ" u2="λ" k="28"/>
<hkern u1="τ" u2="τ" k="-24"/>
<hkern u1="τ" u2="ω" k="-14"/>
<hkern u1="τ" u2="ώ" k="-14"/>
<hkern u1="υ" u2="ά" k="-18"/>
<hkern u1="υ" u2="α" k="-18"/>
<hkern u1="υ" u2="δ" k="-20"/>
<hkern u1="υ" u2="ζ" k="-18"/>
<hkern u1="υ" u2="θ" k="-20"/>
<hkern u1="υ" u2="ο" k="-20"/>
<hkern u1="υ" u2="ς" k="-18"/>
<hkern u1="υ" u2="σ" k="-18"/>
<hkern u1="υ" u2="φ" k="-18"/>
<hkern u1="υ" u2="ω" k="-18"/>
<hkern u1="υ" u2="ό" k="-20"/>
<hkern u1="υ" u2="ώ" k="-18"/>
<hkern u1="φ" u2="ά" k="-18"/>
<hkern u1="φ" u2="α" k="-18"/>
<hkern u1="φ" u2="δ" k="-18"/>
<hkern u1="φ" u2="θ" k="-18"/>
<hkern u1="φ" u2="λ" k="32"/>
<hkern u1="φ" u2="ο" k="-18"/>
<hkern u1="φ" u2="ς" k="-18"/>
<hkern u1="φ" u2="σ" k="-18"/>
<hkern u1="φ" u2="φ" k="-18"/>
<hkern u1="φ" u2="ω" k="-18"/>
<hkern u1="φ" u2="ό" k="-18"/>
<hkern u1="φ" u2="ώ" k="-18"/>
<hkern u1="χ" u2="π" k="-28"/>
<hkern u1="χ" u2="λ" k="32"/>
<hkern u1="χ" u2="ο" k="16"/>
<hkern u1="χ" u2="τ" k="-28"/>
<hkern u1="χ" u2="ό" k="16"/>
<hkern u1="ψ" u2="ά" k="-18"/>
<hkern u1="ψ" u2="α" k="-18"/>
<hkern u1="ψ" u2="δ" k="-18"/>
<hkern u1="ψ" u2="θ" k="-18"/>
<hkern u1="ψ" u2="ο" k="-18"/>
<hkern u1="ψ" u2="ς" k="-18"/>
<hkern u1="ψ" u2="σ" k="-18"/>
<hkern u1="ψ" u2="φ" k="-18"/>
<hkern u1="ψ" u2="ω" k="-18"/>
<hkern u1="ψ" u2="ό" k="-18"/>
<hkern u1="ψ" u2="ώ" k="-18"/>
<hkern u1="ω" u2="ά" k="-18"/>
<hkern u1="ω" u2="α" k="-18"/>
<hkern u1="ω" u2="δ" k="-18"/>
<hkern u1="ω" u2="ζ" k="-18"/>
<hkern u1="ω" u2="θ" k="-18"/>
<hkern u1="ω" u2="λ" k="12"/>
<hkern u1="ω" u2="ο" k="-18"/>
<hkern u1="ω" u2="ς" k="-18"/>
<hkern u1="ω" u2="σ" k="-18"/>
<hkern u1="ω" u2="φ" k="-18"/>
<hkern u1="ω" u2="ω" k="-18"/>
<hkern u1="ω" u2="ό" k="-18"/>
<hkern u1="ω" u2="ώ" k="-18"/>
<hkern u1="ϊ" u2="τ" k="24"/>
<hkern u1="ϋ" u2="ά" k="-18"/>
<hkern u1="ϋ" u2="α" k="-18"/>
<hkern u1="ϋ" u2="δ" k="-20"/>
<hkern u1="ϋ" u2="ζ" k="-18"/>
<hkern u1="ϋ" u2="θ" k="-20"/>
<hkern u1="ϋ" u2="ο" k="-20"/>
<hkern u1="ϋ" u2="ς" k="-18"/>
<hkern u1="ϋ" u2="σ" k="-18"/>
<hkern u1="ϋ" u2="φ" k="-18"/>
<hkern u1="ϋ" u2="ω" k="-18"/>
<hkern u1="ϋ" u2="ό" k="-20"/>
<hkern u1="ϋ" u2="ώ" k="-18"/>
<hkern u1="ό" u2="ά" k="-18"/>
<hkern u1="ό" u2="α" k="-18"/>
<hkern u1="ό" u2="γ" k="24"/>
<hkern u1="ό" u2="δ" k="-18"/>
<hkern u1="ό" u2="θ" k="-18"/>
<hkern u1="ό" u2="λ" k="24"/>
<hkern u1="ό" u2="ο" k="-18"/>
<hkern u1="ό" u2="ς" k="-18"/>
<hkern u1="ό" u2="σ" k="-18"/>
<hkern u1="ό" u2="φ" k="-18"/>
<hkern u1="ό" u2="ω" k="-18"/>
<hkern u1="ό" u2="ό" k="-18"/>
<hkern u1="ό" u2="ώ" k="-18"/>
<hkern u1="ύ" u2="ά" k="-18"/>
<hkern u1="ύ" u2="α" k="-18"/>
<hkern u1="ύ" u2="δ" k="-20"/>
<hkern u1="ύ" u2="ζ" k="-18"/>
<hkern u1="ύ" u2="θ" k="-20"/>
<hkern u1="ύ" u2="ο" k="-20"/>
<hkern u1="ύ" u2="ς" k="-18"/>
<hkern u1="ύ" u2="σ" k="-18"/>
<hkern u1="ύ" u2="φ" k="-18"/>
<hkern u1="ύ" u2="ω" k="-18"/>
<hkern u1="ύ" u2="ό" k="-20"/>
<hkern u1="ύ" u2="ώ" k="-18"/>
<hkern u1="ώ" u2="ά" k="-18"/>
<hkern u1="ώ" u2="α" k="-18"/>
<hkern u1="ώ" u2="δ" k="-18"/>
<hkern u1="ώ" u2="ζ" k="-18"/>
<hkern u1="ώ" u2="θ" k="-18"/>
<hkern u1="ώ" u2="λ" k="12"/>
<hkern u1="ώ" u2="ο" k="-18"/>
<hkern u1="ώ" u2="ς" k="-18"/>
<hkern u1="ώ" u2="σ" k="-18"/>
<hkern u1="ώ" u2="φ" k="-18"/>
<hkern u1="ώ" u2="ω" k="-18"/>
<hkern u1="ώ" u2="ό" k="-18"/>
<hkern u1="ώ" u2="ώ" k="-18"/>

</font>
</defs>
<text x="40" y="40" font-family="FrankGoth for Porsche W15 Cn" font-size="30" fill="#933">ABCDEFGHIJKLMNOPQRSTUVWXYZ abcdefghijklmnopqrstuvwxyz AÁÀÂÄÅÃÆ CÇ DÐ EÉÈÊË I Í Ì Î Ï NÑ</text>
<text x="40" y="80" font-family="FrankGoth for Porsche W15 Cn" font-size="30" fill="#933">OÓÒÔÖÕØŒ SŠ UÚÙÛÜ YÝŸ ZŽ Þ aáàâäåãæ cç dð eéèêë i ı í ì î ï nñ oóòôöõøœ sšß uúùûü yýÿ zž</text>
<text x="40" y="120" font-family="FrankGoth for Porsche W15 Cn" font-size="30" fill="#933">þ 1234567890 ½ ¼ ¾ % ‰ $¢£¥ƒ€¤ † ‡ § ¶ # ^~µ +×± &lt; = &gt; ÷¬ !¡?¿ " &amp; ' * ° . , : ; () [ \ ] {} / |</text>
<text x="40" y="160" font-family="FrankGoth for Porsche W15 Cn" font-size="30" fill="#933">¦ _ ‚ „ … ‹› «» ‘ ’ “ ” • ­ - – — @ © ® ™ ªº ¹²³ ´ ` ˆ ˜ ¨ ¯ · ¸</text>
</svg>